<svg width="243" height="135" viewBox="0 0 243 135" fill="none" xmlns="http://www.w3.org/2000/svg">
<path d="M3.31075 104.744L3.54012 113.129C3.59109 114.454 3.82046 115.193 4.22822 115.346C4.27919 115.371 4.53405 115.397 5.01827 115.448C5.42603 115.499 5.62991 115.575 5.62991 115.652C5.62991 115.779 5.477 115.856 5.17118 115.856C4.66147 115.856 4.12628 115.856 3.59109 115.83C3.0559 115.805 2.75008 115.805 2.69911 115.805C2.69911 115.805 2.46974 115.805 1.93455 115.83C1.42484 115.856 0.940623 115.856 0.532859 115.856C0.227036 115.856 0.0996094 115.779 0.0996094 115.652C0.0996094 115.55 0.278006 115.499 0.609315 115.473C0.838682 115.448 1.09353 115.422 1.29742 115.397C1.55227 115.321 1.70518 115.117 1.80712 114.76C1.88358 114.454 1.90906 113.842 1.93455 112.925L2.11295 101.1C2.13843 100.641 2.21489 100.412 2.3678 100.412C2.46974 100.412 2.72459 100.616 3.10687 101.023C4.20274 102.196 6.26704 104.336 9.29979 107.446C10.6505 108.847 12.1287 110.376 13.7087 112.007H13.8107L13.6068 103.037C13.5813 102.552 13.5558 102.196 13.5303 102.017C13.4284 101.609 13.2245 101.355 12.9187 101.227C12.7148 101.151 12.358 101.1 11.8483 101.1C11.6444 101.1 11.517 101.049 11.517 100.921C11.517 100.794 11.6954 100.743 12.0267 100.743C12.4345 100.743 12.8932 100.743 13.4539 100.768C14.0146 100.794 14.3459 100.794 14.4223 100.794C14.4223 100.794 14.6772 100.794 15.1104 100.768C15.5692 100.743 15.9769 100.743 16.3592 100.743C16.665 100.743 16.8179 100.794 16.8179 100.921C16.8179 101.049 16.6905 101.1 16.4611 101.1C15.7985 101.1 15.3908 101.329 15.2379 101.762C15.1614 101.992 15.1359 102.374 15.1104 102.858L14.8811 115.473C14.8556 115.881 14.7791 116.085 14.6262 116.085C14.4733 116.085 14.2439 115.932 13.9381 115.652C12.6638 114.378 10.7015 112.415 8.05101 109.765C7.13354 108.873 6.11413 107.802 4.99278 106.579C4.4321 105.942 3.84594 105.33 3.28527 104.719H3.31075V104.744Z" fill="#153D68"/>
<path d="M26.6048 110.631H22.1449C22.0684 110.631 21.992 110.682 21.9665 110.784L20.8961 113.639C20.6922 114.174 20.5903 114.582 20.5903 114.862C20.5903 115.27 20.8451 115.473 21.3803 115.473H21.6861C21.89 115.473 21.992 115.524 21.992 115.626C21.992 115.754 21.89 115.83 21.6607 115.83C21.4568 115.83 21.1 115.83 20.5903 115.805C20.0806 115.779 19.7493 115.779 19.5454 115.779C18.3731 115.83 17.6085 115.83 17.1752 115.83C16.9204 115.83 16.793 115.754 16.793 115.626C16.793 115.524 16.8694 115.473 17.0223 115.473C17.2262 115.473 17.4301 115.448 17.634 115.423C18.0672 115.372 18.3985 115.193 18.6789 114.862C18.8828 114.607 19.1121 114.199 19.3415 113.613L24.3621 101.049C24.566 100.514 24.7699 100.259 24.9228 100.259C25.0757 100.259 25.2286 100.463 25.4325 100.896C26.6558 103.98 28.3123 108.083 30.4021 113.18C30.9628 114.505 31.5489 115.219 32.1606 115.372C32.3899 115.423 32.6703 115.448 33.0016 115.448C33.18 115.448 33.2564 115.499 33.2564 115.601C33.2564 115.677 33.18 115.728 33.0526 115.754C32.9251 115.779 32.6703 115.805 32.339 115.805C30.6824 115.805 29.4337 115.779 28.5672 115.754C28.1594 115.728 27.9555 115.677 27.9555 115.601C27.9555 115.499 28.0575 115.423 28.2359 115.423C28.4397 115.346 28.5162 115.193 28.4142 114.964L26.8087 110.733C26.7577 110.682 26.6812 110.631 26.6048 110.631ZM22.5526 109.637H26.2225C26.3245 109.637 26.3499 109.586 26.3245 109.51L24.515 104.566C24.4895 104.438 24.464 104.387 24.4131 104.387C24.3621 104.387 24.3111 104.438 24.2856 104.566L22.4507 109.484C22.4252 109.586 22.4507 109.637 22.5526 109.637Z" fill="#153D68"/>
<path d="M37.1295 116.136C35.9572 116.136 34.9887 115.958 34.1987 115.627C33.9438 115.525 33.8164 115.295 33.8164 114.939C33.8164 114.225 33.8419 113.358 33.9183 112.314C33.9438 111.957 34.0203 111.804 34.1477 111.804C34.2751 111.804 34.3516 111.906 34.3516 112.135C34.3516 112.415 34.4026 112.747 34.53 113.155C34.9378 114.505 35.8807 115.168 37.3843 115.168C38.2254 115.168 38.888 114.913 39.3977 114.429C39.8309 113.996 40.0603 113.486 40.0603 112.9C40.0603 111.804 39.3977 110.733 38.0979 109.714L37.1805 109C35.2181 107.446 34.2242 105.866 34.2242 104.26C34.2242 103.164 34.6574 102.247 35.4984 101.533C36.3649 100.82 37.4608 100.463 38.837 100.463C39.7035 100.463 40.5955 100.565 41.4875 100.794C41.6659 100.845 41.7678 100.922 41.7678 101.024C41.7678 100.998 41.7678 101.227 41.7168 101.737C41.6914 102.247 41.6659 102.808 41.6659 103.419C41.6659 103.827 41.5894 104.031 41.4365 104.031C41.3091 104.031 41.2326 103.903 41.2326 103.674C41.2326 103.241 41.0542 102.782 40.7229 102.349C40.2132 101.686 39.4741 101.38 38.5312 101.38C37.7921 101.38 37.2059 101.559 36.7982 101.941C36.3649 102.323 36.161 102.808 36.161 103.419C36.161 103.878 36.314 104.337 36.6198 104.744C36.9256 105.152 37.4863 105.687 38.2763 106.299L38.837 106.707C40.0348 107.624 40.8758 108.44 41.3855 109.204C41.8697 109.969 42.1246 110.835 42.1246 111.804C42.1246 113.307 41.4875 114.48 40.2387 115.27C39.4741 115.856 38.4038 116.136 37.1295 116.136Z" fill="#153D68"/>
<path d="M48.776 116.136C47.6037 116.136 46.6352 115.958 45.8452 115.627C45.5903 115.525 45.4629 115.295 45.4629 114.939C45.4629 114.225 45.4884 113.358 45.5648 112.314C45.5903 111.957 45.6668 111.804 45.7942 111.804C45.9216 111.804 45.9981 111.906 45.9981 112.135C45.9981 112.415 46.0491 112.747 46.1765 113.155C46.5842 114.505 47.5272 115.168 49.0308 115.168C49.8718 115.168 50.5345 114.913 51.0442 114.429C51.4774 113.996 51.7068 113.486 51.7068 112.9C51.7068 111.804 51.0442 110.733 49.7444 109.714L48.8269 109C46.8646 107.446 45.8707 105.866 45.8707 104.26C45.8707 103.164 46.3039 102.247 47.1449 101.533C48.0114 100.82 49.1073 100.463 50.4835 100.463C51.35 100.463 52.242 100.565 53.134 100.794C53.3124 100.845 53.4143 100.922 53.4143 101.024C53.4143 100.998 53.4143 101.227 53.3633 101.737C53.3378 102.247 53.3124 102.808 53.3124 103.419C53.3124 103.827 53.2359 104.031 53.083 104.031C52.9556 104.031 52.8791 103.903 52.8791 103.674C52.8791 103.241 52.7007 102.782 52.3694 102.349C51.8597 101.686 51.1206 101.38 50.1777 101.38C49.4386 101.38 48.8524 101.559 48.4447 101.941C48.0114 102.323 47.8075 102.808 47.8075 103.419C47.8075 103.878 47.9604 104.337 48.2663 104.744C48.5721 105.152 49.1328 105.687 49.9228 106.299L50.4835 106.707C51.6813 107.624 52.5223 108.44 53.032 109.204C53.5162 109.969 53.7711 110.835 53.7711 111.804C53.7711 113.307 53.134 114.48 51.8852 115.27C51.0951 115.856 50.0502 116.136 48.776 116.136Z" fill="#153D68"/>
<path d="M63.8646 110.631H59.4046C59.3282 110.631 59.2517 110.682 59.2262 110.784L58.1559 113.639C57.952 114.174 57.85 114.582 57.85 114.862C57.85 115.27 58.1049 115.473 58.6401 115.473H58.9459C59.1498 115.473 59.2517 115.524 59.2517 115.626C59.2517 115.754 59.1498 115.83 58.9204 115.83C58.7165 115.83 58.3597 115.83 57.85 115.805C57.3403 115.779 57.009 115.779 56.8051 115.779C55.6328 115.83 54.8683 115.83 54.435 115.83C54.1802 115.83 54.0527 115.754 54.0527 115.626C54.0527 115.524 54.1292 115.473 54.2821 115.473C54.486 115.473 54.6899 115.448 54.8937 115.423C55.327 115.372 55.6583 115.193 55.9386 114.862C56.1425 114.607 56.3719 114.199 56.6013 113.613L61.6219 101.049C61.8257 100.514 62.0296 100.259 62.1825 100.259C62.3354 100.259 62.4884 100.463 62.6922 100.896C63.9155 103.98 65.5721 108.083 67.6619 113.18C68.2225 114.505 68.8087 115.219 69.4203 115.372C69.6497 115.423 69.9301 115.448 70.2614 115.448C70.4398 115.448 70.5162 115.499 70.5162 115.601C70.5162 115.677 70.4398 115.728 70.3123 115.754C70.1849 115.779 69.9301 115.805 69.5987 115.805C67.9422 115.805 66.6934 115.779 65.8269 115.754C65.4192 115.728 65.2153 115.677 65.2153 115.601C65.2153 115.499 65.3172 115.423 65.4956 115.423C65.6995 115.346 65.776 115.193 65.674 114.964L64.0684 110.733C64.0175 110.682 63.941 110.631 63.8646 110.631ZM59.8124 109.637H63.4823C63.5842 109.637 63.6097 109.586 63.5842 109.51L61.7748 104.566C61.7493 104.438 61.7238 104.387 61.6728 104.387C61.6219 104.387 61.5709 104.438 61.5454 104.566L59.7105 109.484C59.685 109.586 59.7105 109.637 59.8124 109.637Z" fill="#153D68"/>
<path d="M71.738 109.459V106.528C71.738 104.133 71.7126 102.731 71.6871 102.298C71.6361 101.661 71.3558 101.278 70.8206 101.151C70.6422 101.1 70.3618 101.1 70.0305 101.1C69.8012 101.1 69.6992 101.049 69.6992 100.922C69.6992 100.794 69.8521 100.743 70.1325 100.743C70.5148 100.743 71.0499 100.743 71.7635 100.769C72.4516 100.794 72.8849 100.794 73.0633 100.794C73.2162 100.794 73.5985 100.794 74.2101 100.769C74.8218 100.743 75.255 100.743 75.5099 100.743C75.8157 100.743 75.9431 100.794 75.9431 100.922C75.9431 101.049 75.8412 101.1 75.6118 101.1C75.4589 101.1 75.255 101.125 75.0256 101.151C74.5669 101.227 74.3375 101.61 74.2866 102.298C74.2611 102.731 74.2356 104.158 74.2356 106.554V109.357C74.2356 111.778 74.7453 113.435 75.7902 114.276C76.4528 114.811 77.2938 115.091 78.2878 115.091C79.4091 115.091 80.3266 114.735 81.0402 114.021C81.5244 113.537 81.8557 112.823 82.0341 111.906C82.136 111.294 82.187 110.351 82.187 109.051V106.554C82.187 104.158 82.1615 102.756 82.136 102.298C82.0851 101.661 81.8047 101.278 81.2695 101.151C81.0911 101.1 80.8363 101.1 80.5559 101.1C80.3266 101.1 80.2246 101.049 80.2246 100.922C80.2246 100.794 80.3521 100.743 80.6324 100.743C81.2186 100.743 81.9831 100.769 82.9261 100.794C82.977 100.794 83.2829 100.794 83.869 100.769C84.4552 100.743 84.9139 100.743 85.2197 100.743C85.5001 100.743 85.6275 100.794 85.6275 100.922C85.6275 101.049 85.5001 101.1 85.2707 101.1C85.1178 101.1 84.9139 101.125 84.6846 101.151C84.2258 101.227 83.9964 101.61 83.9455 102.298C83.92 102.731 83.8945 104.158 83.8945 106.528V108.669C83.8945 110.02 83.7926 111.116 83.5632 111.957C83.2574 113.129 82.7477 114.021 81.9831 114.684C80.8618 115.652 79.4856 116.111 77.829 116.111C75.8921 116.111 74.414 115.652 73.3946 114.735C72.3242 113.69 71.738 111.906 71.738 109.459Z" fill="#153D68"/>
<path d="M95.6189 110.045V106.528C95.6189 104.133 95.5934 102.731 95.5679 102.298C95.517 101.661 95.2366 101.278 94.7014 101.151C94.523 101.1 94.2427 101.1 93.9114 101.1C93.682 101.1 93.5801 101.049 93.5801 100.922C93.5801 100.794 93.733 100.743 94.0133 100.743C94.4211 100.743 94.9563 100.743 95.6189 100.769C96.2815 100.794 96.6383 100.794 96.7402 100.794C97.097 100.794 97.5303 100.794 98.0655 100.769C98.6007 100.743 98.983 100.743 99.1868 100.743C100.792 100.743 101.939 101.1 102.678 101.839C103.188 102.349 103.468 102.986 103.468 103.75C103.468 104.999 102.78 106.146 101.43 107.242C102.398 107.573 103.214 108.083 103.876 108.746C104.666 109.561 105.074 110.504 105.074 111.574C105.074 112.747 104.641 113.741 103.8 114.556C102.806 115.474 101.455 115.932 99.7475 115.932C99.5946 115.932 99.1359 115.907 98.3458 115.881C97.5558 115.83 97.0716 115.83 96.8422 115.83C96.7148 115.83 96.358 115.83 95.7208 115.856C95.0837 115.881 94.625 115.881 94.3191 115.881C94.0643 115.881 93.9114 115.805 93.9114 115.678C93.9114 115.576 94.0643 115.525 94.3446 115.499C94.5485 115.474 94.7524 115.448 94.9563 115.448C95.2621 115.372 95.466 115.015 95.5424 114.352C95.5934 113.792 95.6189 112.364 95.6189 110.045ZM98.0145 101.941V106.885C98.0145 107.013 98.0655 107.089 98.1419 107.114C98.3203 107.165 98.6262 107.165 99.0849 107.165C99.7475 107.165 100.206 107.038 100.512 106.783C101.047 106.324 101.328 105.611 101.328 104.668C101.328 103.903 101.124 103.215 100.716 102.604C100.232 101.915 99.5946 101.559 98.8046 101.559C98.3458 101.559 98.091 101.584 98.04 101.635C98.04 101.686 98.0145 101.788 98.0145 101.941ZM102.602 112.441C102.602 110.708 101.965 109.357 100.665 108.465C100.257 108.185 99.722 108.032 99.0084 107.981C98.7536 107.955 98.4732 107.955 98.1419 107.955C98.0655 107.955 98.0145 108.006 98.0145 108.083V112.823C98.0145 113.511 98.0655 113.97 98.1419 114.174C98.2184 114.429 98.4223 114.607 98.7281 114.735C99.1104 114.887 99.5946 114.964 100.181 114.964C100.792 114.964 101.302 114.786 101.71 114.454C102.322 114.046 102.602 113.358 102.602 112.441Z" fill="#153D68"/>
<path d="M115.013 110.631H110.553C110.477 110.631 110.4 110.682 110.375 110.784L109.304 113.639C109.1 114.174 108.998 114.582 108.998 114.862C108.998 115.27 109.253 115.473 109.789 115.473H110.094C110.298 115.473 110.4 115.524 110.4 115.626C110.4 115.754 110.298 115.83 110.069 115.83C109.865 115.83 109.508 115.83 108.998 115.805C108.489 115.779 108.157 115.779 107.954 115.779C106.781 115.83 106.017 115.83 105.583 115.83C105.329 115.83 105.201 115.754 105.201 115.626C105.201 115.524 105.278 115.473 105.431 115.473C105.634 115.473 105.838 115.448 106.042 115.423C106.475 115.372 106.807 115.193 107.087 114.862C107.291 114.607 107.52 114.199 107.75 113.613L112.77 101.049C112.974 100.514 113.178 100.259 113.331 100.259C113.484 100.259 113.637 100.463 113.841 100.896C115.064 103.98 116.721 108.083 118.81 113.18C119.371 114.505 119.957 115.219 120.569 115.372C120.798 115.423 121.078 115.448 121.41 115.448C121.588 115.448 121.665 115.499 121.665 115.601C121.665 115.677 121.588 115.728 121.461 115.754C121.333 115.779 121.078 115.805 120.747 115.805C119.091 115.805 117.842 115.779 116.975 115.754C116.568 115.728 116.364 115.677 116.364 115.601C116.364 115.499 116.466 115.423 116.644 115.423C116.848 115.346 116.924 115.193 116.822 114.964L115.217 110.733C115.166 110.682 115.115 110.631 115.013 110.631ZM110.961 109.637H114.631C114.733 109.637 114.758 109.586 114.733 109.51L112.923 104.566C112.898 104.438 112.872 104.387 112.821 104.387C112.77 104.387 112.719 104.438 112.694 104.566L110.859 109.484C110.859 109.586 110.884 109.637 110.961 109.637Z" fill="#153D68"/>
<path d="M125.971 112.313V110.682C125.971 109.969 125.819 109.281 125.513 108.593C125.436 108.44 124.901 107.548 123.933 105.968C122.964 104.387 122.327 103.343 121.97 102.833C121.486 102.094 121.027 101.61 120.594 101.38C120.288 101.202 120.008 101.125 119.753 101.125C119.549 101.125 119.447 101.074 119.447 100.947C119.447 100.82 119.575 100.769 119.83 100.769C119.931 100.769 120.314 100.769 120.976 100.794C121.639 100.82 122.098 100.82 122.353 100.82C122.455 100.82 122.76 100.82 123.245 100.794C123.729 100.769 124.162 100.769 124.493 100.769C124.697 100.769 124.799 100.82 124.799 100.947C124.799 101.023 124.646 101.1 124.366 101.176C124.188 101.227 124.086 101.329 124.086 101.533C124.086 101.661 124.162 101.89 124.315 102.221C124.366 102.349 125.513 104.336 127.704 108.185C128.622 106.554 129.616 104.719 130.712 102.68C130.89 102.272 130.992 101.915 130.992 101.635C130.992 101.38 130.865 101.202 130.61 101.151C130.355 101.1 130.228 101.023 130.228 100.947C130.228 100.82 130.329 100.769 130.559 100.769C130.788 100.769 131.12 100.769 131.527 100.794C131.935 100.82 132.241 100.82 132.445 100.82C132.598 100.82 132.954 100.82 133.541 100.794C134.127 100.769 134.458 100.769 134.586 100.769C134.815 100.769 134.942 100.82 134.942 100.921C134.942 101.049 134.815 101.125 134.56 101.125C134.305 101.125 133.999 101.202 133.694 101.355C133.388 101.508 133.005 101.839 132.598 102.323C132.266 102.705 131.604 103.75 130.584 105.458C129.565 107.165 128.953 108.236 128.775 108.669C128.571 109.153 128.469 109.816 128.469 110.657V112.288C128.469 113.46 128.495 114.225 128.571 114.556C128.647 115.04 128.902 115.321 129.361 115.372C129.743 115.423 130.075 115.448 130.38 115.448C130.584 115.448 130.712 115.499 130.712 115.601C130.712 115.728 130.584 115.805 130.304 115.805C129.82 115.805 129.234 115.805 128.495 115.779C127.755 115.754 127.348 115.754 127.246 115.754C127.093 115.754 126.711 115.754 126.073 115.779C125.436 115.805 125.003 115.805 124.723 115.805C124.417 115.805 124.289 115.728 124.289 115.601C124.289 115.525 124.442 115.474 124.723 115.423C124.901 115.397 125.105 115.372 125.309 115.372C125.691 115.295 125.895 114.913 125.921 114.276C125.946 113.741 125.971 113.078 125.971 112.313Z" fill="#153D68"/>
<path d="M148.398 110.631H143.938C143.861 110.631 143.785 110.682 143.759 110.784L142.689 113.639C142.485 114.174 142.383 114.582 142.383 114.862C142.383 115.27 142.638 115.473 143.173 115.473H143.479C143.683 115.473 143.785 115.524 143.785 115.626C143.785 115.754 143.683 115.83 143.454 115.83C143.25 115.83 142.893 115.83 142.383 115.805C141.874 115.779 141.542 115.779 141.338 115.779C140.166 115.83 139.401 115.83 138.968 115.83C138.713 115.83 138.586 115.754 138.586 115.626C138.586 115.524 138.662 115.473 138.815 115.473C139.019 115.473 139.223 115.448 139.427 115.423C139.86 115.372 140.192 115.193 140.472 114.862C140.676 114.607 140.905 114.199 141.134 113.613L146.155 101.049C146.359 100.514 146.563 100.259 146.716 100.259C146.869 100.259 147.022 100.463 147.225 100.896C148.449 103.98 150.105 108.083 152.195 113.18C152.756 114.505 153.342 115.219 153.954 115.372C154.183 115.423 154.463 115.448 154.795 115.448C154.973 115.448 155.049 115.499 155.049 115.601C155.049 115.677 154.973 115.728 154.846 115.754C154.718 115.779 154.463 115.805 154.132 115.805C152.475 115.805 151.227 115.779 150.36 115.754C149.952 115.728 149.748 115.677 149.748 115.601C149.748 115.499 149.85 115.423 150.029 115.423C150.233 115.346 150.309 115.193 150.207 114.964L148.602 110.733C148.551 110.682 148.5 110.631 148.398 110.631ZM144.346 109.637H148.015C148.117 109.637 148.143 109.586 148.117 109.51L146.308 104.566C146.282 104.438 146.257 104.387 146.206 104.387C146.155 104.387 146.104 104.438 146.079 104.566L144.244 109.484C144.244 109.586 144.269 109.637 144.346 109.637Z" fill="#153D68"/>
<path d="M169.219 112.313V114.505C169.219 114.887 169.143 115.142 168.964 115.218C167.843 115.83 166.237 116.11 164.148 116.11C161.497 116.11 159.356 115.499 157.7 114.25C155.839 112.874 154.922 110.86 154.922 108.261C154.922 106.757 155.279 105.407 155.992 104.209C156.604 103.164 157.419 102.323 158.413 101.737C159.841 100.87 161.65 100.437 163.791 100.437C165.065 100.437 166.237 100.539 167.333 100.768C167.97 100.896 168.48 100.972 168.913 100.998C169.092 101.023 169.194 101.1 169.194 101.227C169.194 101.1 169.168 101.354 169.117 102.017C169.066 102.654 169.041 103.495 169.041 104.515C169.041 104.795 168.964 104.922 168.811 104.922C168.709 104.922 168.633 104.846 168.607 104.668C168.506 103.954 168.276 103.393 167.919 103.011C167.563 102.629 167.027 102.297 166.314 101.992C165.422 101.635 164.479 101.456 163.459 101.456C161.803 101.456 160.478 101.864 159.509 102.705C158.286 103.725 157.674 105.356 157.674 107.598C157.674 109.79 158.311 111.574 159.586 112.976C160.86 114.377 162.542 115.091 164.632 115.091C165.728 115.091 166.39 114.964 166.569 114.683C166.671 114.556 166.696 114.377 166.696 114.148V112.262C166.696 111.115 166.696 110.325 166.671 109.918C166.645 109.28 166.365 108.898 165.804 108.771C165.626 108.72 165.345 108.72 165.014 108.72C164.81 108.72 164.708 108.669 164.708 108.567C164.708 108.439 164.861 108.363 165.116 108.363C165.498 108.363 166.033 108.363 166.747 108.388C167.435 108.414 167.868 108.414 168.021 108.414C168.225 108.414 168.607 108.414 169.168 108.388C169.729 108.363 170.137 108.363 170.366 108.363C170.621 108.363 170.774 108.439 170.774 108.567C170.774 108.669 170.697 108.72 170.544 108.72C170.391 108.72 170.188 108.745 169.958 108.771C169.474 108.873 169.219 109.255 169.194 109.918C169.245 110.325 169.219 111.141 169.219 112.313Z" fill="#153D68"/>
<path d="M174.826 110.045V106.528C174.826 104.132 174.8 102.731 174.775 102.297C174.724 101.66 174.444 101.278 173.908 101.151C173.73 101.1 173.45 101.1 173.118 101.1C172.889 101.1 172.787 101.049 172.787 100.921C172.787 100.794 172.94 100.743 173.22 100.743C173.628 100.743 174.163 100.743 174.851 100.768C175.54 100.794 175.947 100.794 176.1 100.794C179.26 100.794 180.917 100.794 181.095 100.768C181.452 100.743 181.732 100.692 181.962 100.641C182.191 100.59 182.293 100.564 182.293 100.564C182.37 100.564 182.421 100.615 182.421 100.743C182.421 100.768 182.395 100.87 182.37 101.1C182.319 101.354 182.293 101.686 182.268 102.043C182.242 102.399 182.217 102.833 182.166 103.368C182.14 103.521 182.064 103.597 181.962 103.597C181.86 103.597 181.809 103.521 181.783 103.368C181.758 103.215 181.758 103.087 181.732 102.96C181.732 102.833 181.681 102.705 181.656 102.603C181.503 102.221 181.044 101.966 180.305 101.89C179.847 101.839 178.904 101.813 177.451 101.813C177.349 101.813 177.298 101.89 177.298 102.017V107.063C177.298 107.216 177.349 107.293 177.451 107.293C179.286 107.293 180.356 107.267 180.662 107.242C180.891 107.216 181.07 107.216 181.172 107.191C181.376 107.14 181.529 107.063 181.605 106.961C181.758 106.783 181.86 106.706 181.936 106.706C182.038 106.706 182.089 106.757 182.089 106.859C182.089 106.885 182.064 107.012 182.038 107.267C181.987 107.573 181.962 107.93 181.936 108.337C181.885 109.102 181.86 109.535 181.86 109.688C181.86 109.943 181.809 110.07 181.681 110.07C181.554 110.07 181.503 109.994 181.503 109.867C181.503 109.714 181.478 109.484 181.427 109.178C181.325 108.72 180.942 108.465 180.305 108.388C179.923 108.337 178.98 108.337 177.451 108.337C177.374 108.337 177.323 108.414 177.323 108.541V113.231C177.349 113.944 177.502 114.403 177.782 114.607C178.063 114.811 178.725 114.913 179.719 114.913C180.637 114.913 181.248 114.836 181.605 114.683C182.064 114.479 182.37 113.97 182.497 113.205C182.548 113.001 182.599 112.899 182.726 112.899C182.828 112.899 182.879 113.027 182.879 113.256C182.879 114.072 182.803 114.811 182.624 115.473C182.548 115.703 182.472 115.856 182.344 115.907C182.217 115.958 181.962 115.983 181.554 115.983C180.407 115.983 179.235 115.958 178.088 115.932C176.941 115.881 176.253 115.881 175.998 115.881C175.871 115.881 175.514 115.881 174.877 115.907C174.24 115.932 173.781 115.932 173.475 115.932C173.22 115.932 173.067 115.856 173.067 115.728C173.067 115.626 173.22 115.575 173.501 115.55C173.705 115.524 173.908 115.499 174.112 115.499C174.418 115.422 174.622 115.066 174.699 114.403C174.8 113.791 174.826 112.364 174.826 110.045Z" fill="#153D68"/>
<path d="M188.385 104.744L188.614 113.129C188.665 114.454 188.895 115.193 189.302 115.346C189.353 115.371 189.608 115.397 190.092 115.448C190.5 115.499 190.704 115.575 190.704 115.652C190.704 115.779 190.551 115.856 190.245 115.856C189.736 115.856 189.201 115.856 188.665 115.83C188.13 115.805 187.824 115.805 187.773 115.805C187.773 115.805 187.544 115.805 187.009 115.83C186.499 115.856 186.015 115.856 185.607 115.856C185.301 115.856 185.174 115.779 185.174 115.652C185.174 115.55 185.352 115.499 185.684 115.473C185.913 115.448 186.168 115.422 186.372 115.397C186.626 115.321 186.779 115.117 186.881 114.76C186.958 114.454 186.983 113.842 187.009 112.925L187.187 101.1C187.213 100.641 187.289 100.412 187.442 100.412C187.544 100.412 187.799 100.616 188.181 101.023C189.277 102.196 191.341 104.336 194.374 107.446C195.725 108.847 197.203 110.376 198.783 112.007H198.885L198.681 103.037C198.656 102.552 198.63 102.196 198.605 102.017C198.503 101.609 198.299 101.355 197.993 101.227C197.789 101.151 197.432 101.1 196.923 101.1C196.719 101.1 196.591 101.049 196.591 100.921C196.591 100.794 196.77 100.743 197.101 100.743C197.509 100.743 197.967 100.743 198.528 100.768C199.089 100.794 199.42 100.794 199.497 100.794C199.497 100.794 199.751 100.794 200.185 100.768C200.643 100.743 201.051 100.743 201.433 100.743C201.739 100.743 201.892 100.794 201.892 100.921C201.892 101.049 201.765 101.1 201.535 101.1C200.873 101.1 200.465 101.329 200.312 101.762C200.236 101.992 200.21 102.374 200.185 102.858L199.955 115.473C199.93 115.881 199.853 116.085 199.7 116.085C199.548 116.085 199.318 115.932 199.012 115.652C197.738 114.378 195.776 112.415 193.125 109.765C192.208 108.873 191.188 107.802 190.067 106.579C189.506 105.942 188.92 105.33 188.359 104.719H188.385V104.744Z" fill="#153D68"/>
<path d="M213.539 116.136C210.633 116.136 208.34 115.422 206.683 113.97C205.027 112.517 204.186 110.555 204.186 108.057C204.186 105.84 204.976 104.005 206.53 102.578C208.085 101.151 210.2 100.437 212.876 100.437C213.793 100.437 214.762 100.513 215.781 100.641C216.24 100.743 216.928 100.845 217.795 100.972C217.999 100.998 218.1 101.074 218.1 101.202C218.1 101.253 218.075 101.354 218.05 101.533C218.024 101.762 217.999 102.017 217.973 102.297C217.948 102.884 217.922 103.597 217.897 104.464C217.871 104.77 217.795 104.922 217.667 104.922C217.54 104.922 217.463 104.77 217.463 104.489C217.463 103.801 217.183 103.189 216.673 102.654C216.317 102.297 215.807 101.992 215.093 101.762C214.329 101.533 213.513 101.405 212.621 101.405C211.016 101.405 209.767 101.813 208.875 102.654C207.652 103.776 207.04 105.509 207.04 107.828C207.04 110.019 207.753 111.803 209.181 113.154C210.429 114.352 211.806 114.938 213.335 114.938C214.176 114.938 214.838 114.887 215.323 114.785C216.036 114.632 216.597 114.301 217.005 113.817C217.361 113.409 217.591 112.976 217.693 112.492C217.744 112.237 217.846 112.084 217.948 112.084C218.075 112.084 218.126 112.186 218.126 112.39C218.126 112.543 218.075 112.925 217.973 113.562C217.871 114.25 217.769 114.76 217.693 115.04C217.616 115.346 217.438 115.524 217.158 115.652C216.393 115.983 215.195 116.136 213.539 116.136Z" fill="#153D68"/>
<path d="M224.624 112.313V110.682C224.624 109.969 224.471 109.281 224.165 108.593C224.089 108.44 223.553 107.548 222.585 105.968C221.617 104.387 220.979 103.343 220.623 102.833C220.138 102.094 219.68 101.61 219.246 101.38C218.941 101.202 218.66 101.125 218.405 101.125C218.202 101.125 218.1 101.074 218.1 100.947C218.1 100.82 218.227 100.769 218.482 100.769C218.584 100.769 218.966 100.769 219.629 100.794C220.291 100.82 220.75 100.82 221.005 100.82C221.107 100.82 221.413 100.82 221.897 100.794C222.381 100.769 222.814 100.769 223.146 100.769C223.35 100.769 223.452 100.82 223.452 100.947C223.452 101.023 223.299 101.1 223.018 101.176C222.84 101.227 222.738 101.329 222.738 101.533C222.738 101.661 222.814 101.89 222.967 102.221C223.018 102.349 224.165 104.336 226.357 108.185C227.274 106.554 228.268 104.719 229.364 102.68C229.542 102.272 229.644 101.915 229.644 101.635C229.644 101.38 229.517 101.202 229.262 101.151C229.007 101.1 228.88 101.023 228.88 100.947C228.88 100.82 228.982 100.769 229.211 100.769C229.441 100.769 229.772 100.769 230.18 100.794C230.587 100.82 230.893 100.82 231.097 100.82C231.25 100.82 231.607 100.82 232.193 100.794C232.779 100.769 233.11 100.769 233.238 100.769C233.467 100.769 233.595 100.82 233.595 100.921C233.595 101.049 233.467 101.125 233.212 101.125C232.958 101.125 232.652 101.202 232.346 101.355C232.04 101.508 231.658 101.839 231.25 102.323C230.919 102.705 230.256 103.75 229.237 105.458C228.217 107.165 227.606 108.236 227.427 108.669C227.223 109.153 227.121 109.816 227.121 110.657V112.288C227.121 113.46 227.147 114.225 227.223 114.556C227.3 115.04 227.555 115.321 228.013 115.372C228.396 115.423 228.727 115.448 229.033 115.448C229.237 115.448 229.364 115.499 229.364 115.601C229.364 115.728 229.237 115.805 228.956 115.805C228.472 115.805 227.886 115.805 227.147 115.779C226.408 115.754 226 115.754 225.898 115.754C225.745 115.754 225.363 115.754 224.726 115.779C224.089 115.805 223.655 115.805 223.375 115.805C223.069 115.805 222.942 115.728 222.942 115.601C222.942 115.525 223.095 115.474 223.375 115.423C223.553 115.397 223.757 115.372 223.961 115.372C224.343 115.295 224.547 114.913 224.573 114.276C224.598 113.741 224.624 113.078 224.624 112.313Z" fill="#153D68"/>
<path d="M233.901 113.995V111.421L232.958 111.447C232.627 111.447 232.423 111.523 232.347 111.625C232.296 111.701 232.245 111.778 232.245 111.854C232.245 111.905 232.219 111.931 232.168 111.931C232.143 111.931 232.117 111.905 232.117 111.829C232.117 111.727 232.168 111.472 232.245 111.115C232.27 111.039 232.296 110.988 232.321 110.988C232.321 110.988 232.372 110.988 232.423 111.013C232.474 111.039 232.525 111.039 232.601 111.064C232.831 111.09 233.035 111.09 233.239 111.09H235.711C235.864 111.09 236.016 111.09 236.144 111.064C236.271 111.039 236.322 111.039 236.322 111.039C236.348 111.039 236.373 111.09 236.373 111.166C236.373 111.217 236.373 111.319 236.373 111.523C236.373 111.701 236.373 111.829 236.348 111.905C236.348 111.956 236.322 112.007 236.297 112.007C236.271 112.007 236.246 111.956 236.22 111.88V111.803C236.195 111.574 235.965 111.472 235.481 111.447L234.691 111.421V113.995C234.691 114.709 234.691 115.142 234.717 115.346C234.742 115.55 234.819 115.652 234.972 115.677C235.099 115.703 235.201 115.703 235.303 115.703C235.379 115.703 235.405 115.728 235.405 115.754C235.405 115.805 235.354 115.805 235.277 115.805C235.124 115.805 234.921 115.805 234.691 115.805C234.462 115.805 234.334 115.805 234.283 115.805C234.258 115.805 234.131 115.805 233.927 115.805C233.723 115.805 233.595 115.805 233.493 115.805C233.417 115.805 233.366 115.779 233.366 115.754C233.366 115.728 233.417 115.703 233.493 115.703C233.544 115.703 233.621 115.677 233.672 115.677C233.774 115.652 233.825 115.55 233.85 115.346C233.901 115.142 233.901 114.709 233.901 113.995Z" fill="#153D68"/>
<path d="M237.112 115.193L237.723 111.115C237.749 111.013 237.774 110.962 237.825 110.962C237.876 110.962 237.927 111.039 238.004 111.166L239.711 114.709L241.419 111.141C241.47 111.039 241.521 110.988 241.546 110.988C241.597 110.988 241.648 111.064 241.648 111.192L242.209 115.066C242.234 115.269 242.285 115.422 242.311 115.524C242.362 115.626 242.413 115.677 242.515 115.703C242.642 115.754 242.769 115.754 242.897 115.754C242.973 115.754 242.999 115.779 242.999 115.805C242.999 115.856 242.948 115.881 242.846 115.881C242.311 115.881 241.903 115.881 241.572 115.856C241.444 115.856 241.393 115.83 241.393 115.779C241.393 115.754 241.419 115.728 241.47 115.703C241.521 115.677 241.521 115.601 241.495 115.422L241.113 112.67H241.087L239.711 115.524C239.609 115.754 239.533 115.881 239.482 115.881C239.456 115.881 239.38 115.779 239.252 115.575C238.845 114.811 238.615 114.352 238.539 114.148C238.386 113.842 238.182 113.384 237.876 112.746H237.851L237.519 115.244C237.519 115.346 237.494 115.448 237.494 115.55C237.494 115.652 237.545 115.728 237.672 115.754C237.774 115.779 237.851 115.779 237.927 115.779C237.978 115.779 238.029 115.805 238.029 115.83C238.029 115.881 237.978 115.907 237.876 115.907C237.774 115.907 237.647 115.907 237.494 115.907C237.341 115.907 237.239 115.907 237.214 115.907C237.188 115.907 237.086 115.907 236.933 115.907C236.78 115.907 236.678 115.907 236.602 115.907C236.525 115.907 236.5 115.881 236.5 115.83C236.5 115.805 236.525 115.779 236.602 115.779C236.678 115.779 236.729 115.779 236.78 115.754C236.984 115.652 237.061 115.473 237.112 115.193Z" fill="#153D68"/>
<path d="M19.4183 134.128L17.1756 127.426C17.0227 127.018 16.8952 126.763 16.7933 126.687C16.6913 126.61 16.5639 126.585 16.36 126.585C16.2581 126.585 16.1816 126.559 16.1816 126.483C16.1816 126.406 16.2581 126.381 16.411 126.381C16.6404 126.381 16.8952 126.381 17.2011 126.406C17.5069 126.406 17.6598 126.432 17.6343 126.432C17.6088 126.432 17.7617 126.432 18.0166 126.406C18.2969 126.406 18.5518 126.381 18.8066 126.381C18.9595 126.381 19.036 126.406 19.036 126.483C19.036 126.534 18.985 126.559 18.8576 126.585C18.7047 126.585 18.6282 126.61 18.5773 126.636C18.5008 126.661 18.4498 126.738 18.4498 126.865C18.4498 126.916 18.5263 127.247 18.6792 127.834C18.934 128.827 19.3928 130.331 20.0299 132.319H20.0554L22.0942 126.814C22.1962 126.559 22.2726 126.432 22.3491 126.432C22.4255 126.432 22.5275 126.61 22.6549 126.916L24.8466 132.217H24.8721C24.9486 131.911 25.4328 130.331 26.2738 127.502C26.3503 127.273 26.3757 127.069 26.3757 126.891C26.3757 126.687 26.1973 126.585 25.866 126.585C25.7386 126.585 25.6876 126.559 25.6876 126.483C25.6876 126.406 25.7641 126.381 25.9425 126.381C26.1719 126.381 26.4012 126.381 26.6561 126.406C26.9109 126.406 27.0384 126.432 27.0384 126.432C27.4716 126.406 27.7774 126.406 27.9049 126.406C28.0323 126.406 28.0833 126.432 28.0833 126.483C28.0833 126.559 28.0323 126.585 27.9303 126.585C27.7774 126.585 27.65 126.61 27.5736 126.636C27.4716 126.687 27.3697 126.789 27.2677 127.018C27.2422 127.069 27.1403 127.324 26.9874 127.757C26.5287 129.006 25.8406 131.07 24.8721 134.026C24.7702 134.358 24.6682 134.511 24.5663 134.511C24.4898 134.511 24.3879 134.332 24.235 134.001L22.0433 128.726H22.0178C20.9984 131.478 20.3103 133.236 19.9535 133.975C19.7751 134.358 19.6476 134.536 19.5712 134.536C19.4947 134.536 19.4947 134.383 19.4183 134.128Z" fill="#33A6DE"/>
<path d="M29.5606 131.3V129.439C29.5606 128.191 29.5606 127.426 29.5351 127.197C29.5096 126.865 29.3567 126.661 29.0764 126.585C28.9745 126.56 28.847 126.56 28.6686 126.56C28.5412 126.56 28.4902 126.534 28.4902 126.458C28.4902 126.381 28.5667 126.356 28.7196 126.356C28.9235 126.356 29.2038 126.356 29.5861 126.381C29.9429 126.381 30.1723 126.407 30.2487 126.407C31.9053 126.407 32.7972 126.407 32.8737 126.407C33.0521 126.381 33.205 126.381 33.3324 126.356C33.4599 126.33 33.5108 126.305 33.5108 126.305C33.5618 126.305 33.5618 126.33 33.5618 126.407C33.5618 126.407 33.5618 126.483 33.5363 126.585C33.5108 126.738 33.5108 126.891 33.4853 127.069C33.4853 127.248 33.4599 127.502 33.4344 127.757C33.4089 127.834 33.3834 127.885 33.3324 127.885C33.2815 127.885 33.256 127.859 33.2305 127.757C33.2305 127.681 33.205 127.604 33.205 127.528C33.205 127.452 33.1795 127.401 33.154 127.35C33.0776 127.146 32.8227 127.018 32.4404 126.967C32.2111 126.942 31.7014 126.916 30.9368 126.916C30.8858 126.916 30.8604 126.942 30.8604 127.018V129.694C30.8604 129.771 30.8858 129.822 30.9368 129.822C31.9053 129.822 32.4659 129.822 32.6188 129.796C32.7463 129.796 32.8227 129.771 32.8992 129.771C33.0011 129.745 33.0776 129.694 33.1286 129.643C33.205 129.541 33.2815 129.516 33.3069 129.516C33.3579 129.516 33.3834 129.541 33.3834 129.592C33.3834 129.592 33.3834 129.669 33.3579 129.796C33.3324 129.949 33.3069 130.153 33.3069 130.357C33.2815 130.765 33.256 130.994 33.256 131.07C33.256 131.198 33.2305 131.274 33.154 131.274C33.0776 131.274 33.0521 131.249 33.0521 131.172C33.0521 131.096 33.0266 130.968 33.0011 130.816C32.9502 130.586 32.7463 130.433 32.415 130.408C32.2111 130.382 31.7269 130.382 30.9113 130.382C30.8604 130.382 30.8349 130.408 30.8349 130.484V132.956C30.8604 133.339 30.9368 133.568 31.0897 133.67C31.2426 133.772 31.574 133.823 32.1091 133.823C32.5934 133.823 32.9247 133.772 33.1031 133.695C33.3579 133.593 33.5108 133.313 33.5873 132.905C33.6128 132.803 33.6383 132.752 33.7147 132.752C33.7657 132.752 33.7912 132.829 33.7912 132.931C33.7912 133.364 33.7402 133.746 33.6637 134.103C33.6383 134.231 33.5873 134.307 33.5108 134.333C33.4599 134.358 33.3069 134.384 33.0776 134.384C32.4659 134.384 31.8543 134.384 31.2426 134.358C30.631 134.333 30.2742 134.333 30.1468 134.333C30.0958 134.333 29.8919 134.333 29.5606 134.358C29.2293 134.358 28.9745 134.384 28.8215 134.384C28.6686 134.384 28.6177 134.358 28.6177 134.282C28.6177 134.231 28.6941 134.205 28.847 134.18C28.949 134.154 29.0509 134.154 29.1528 134.154C29.3058 134.129 29.4077 133.925 29.4587 133.568C29.5351 133.288 29.5606 132.523 29.5606 131.3Z" fill="#33A6DE"/>
<path d="M38.7358 133.313L39.7807 126.432C39.8062 126.254 39.8572 126.152 39.9591 126.152C40.0356 126.152 40.1375 126.254 40.2395 126.483L43.1193 132.421L45.9991 126.407C46.0756 126.228 46.152 126.152 46.2285 126.152C46.3304 126.152 46.3814 126.254 46.4069 126.483L47.3753 133.007C47.4263 133.364 47.4773 133.619 47.5537 133.772C47.6302 133.925 47.7321 134.027 47.885 134.078C48.1144 134.154 48.3438 134.18 48.5477 134.18C48.6496 134.18 48.7261 134.205 48.7261 134.256C48.7261 134.333 48.6241 134.384 48.4457 134.384C47.5537 134.384 46.8401 134.358 46.305 134.307C46.1011 134.282 45.9991 134.256 45.9991 134.18C45.9991 134.129 46.0246 134.103 46.1011 134.078C46.1775 134.052 46.203 133.899 46.152 133.619L45.5149 128.981H45.4639L43.1703 133.772C42.9919 134.154 42.839 134.358 42.788 134.358C42.737 134.358 42.6096 134.18 42.4312 133.823C41.7686 132.549 41.3608 131.759 41.2079 131.427C40.9785 130.918 40.5963 130.128 40.112 129.083H40.0611L39.5259 133.288C39.5004 133.441 39.5004 133.619 39.5004 133.772C39.5004 133.95 39.6023 134.052 39.8062 134.103C39.9591 134.129 40.112 134.154 40.2395 134.154C40.3414 134.154 40.3924 134.18 40.3924 134.231C40.3924 134.307 40.3159 134.358 40.1375 134.358C39.9591 134.358 39.7552 134.358 39.5004 134.333C39.2455 134.333 39.0926 134.307 39.0417 134.307C38.9907 134.307 38.8378 134.307 38.5829 134.333C38.3281 134.333 38.1242 134.358 37.9968 134.358C37.8693 134.358 37.8184 134.307 37.8184 134.231C37.8184 134.18 37.8693 134.154 37.9968 134.154C38.0987 134.154 38.2261 134.154 38.3026 134.129C38.5065 134.103 38.6594 133.823 38.7358 133.313Z" fill="#33A6DE"/>
<path d="M53.1598 131.605H50.8152C50.7642 131.605 50.7387 131.631 50.7133 131.682L50.1526 133.186C50.0506 133.466 49.9997 133.67 49.9997 133.823C49.9997 134.052 50.1526 134.154 50.4329 134.154H50.5858C50.6878 134.154 50.7387 134.18 50.7387 134.23C50.7387 134.307 50.6878 134.332 50.5603 134.332C50.4584 134.332 50.2545 134.332 49.9997 134.307C49.7448 134.307 49.5409 134.281 49.439 134.281C48.8273 134.307 48.4196 134.307 48.1902 134.307C48.0628 134.307 47.9863 134.281 47.9863 134.205C47.9863 134.154 48.0373 134.129 48.1138 134.129C48.2157 134.129 48.3431 134.129 48.4451 134.103C48.6744 134.078 48.8528 133.976 48.9803 133.797C49.0822 133.67 49.2096 133.44 49.337 133.135L51.9875 126.508C52.0895 126.228 52.1914 126.075 52.2933 126.075C52.3698 126.075 52.4462 126.177 52.5482 126.407C53.1853 128.038 54.0773 130.204 55.1732 132.88C55.479 133.568 55.7848 133.95 56.0906 134.027C56.2181 134.052 56.371 134.078 56.5239 134.078C56.6258 134.078 56.6513 134.103 56.6513 134.154C56.6513 134.205 56.6258 134.23 56.5494 134.23C56.4729 134.256 56.3455 134.256 56.1671 134.256C55.3006 134.256 54.638 134.256 54.1792 134.23C53.9754 134.23 53.8734 134.205 53.8734 134.154C53.8734 134.103 53.9244 134.078 54.0263 134.052C54.1283 134.027 54.1792 133.925 54.1283 133.797L53.2873 131.555C53.2363 131.631 53.2108 131.605 53.1598 131.605ZM51.0191 131.096H52.956C53.0069 131.096 53.0324 131.07 53.0069 131.045L52.064 128.445C52.0385 128.394 52.0385 128.343 52.013 128.343C51.9875 128.343 51.962 128.369 51.962 128.445L50.9936 131.045C50.9681 131.07 50.9681 131.096 51.0191 131.096Z" fill="#33A6DE"/>
<path d="M59.0482 129.465V129.923H59.0992C59.7363 129.261 60.4754 128.496 61.2909 127.604C61.6477 127.196 61.8261 126.916 61.8261 126.814C61.8261 126.687 61.7752 126.636 61.6732 126.61C61.5713 126.585 61.5203 126.559 61.5203 126.508C61.5203 126.432 61.5713 126.406 61.6987 126.406C61.7752 126.406 61.9536 126.406 62.2084 126.432C62.4888 126.432 62.6671 126.457 62.7691 126.457C62.871 126.457 63.1004 126.457 63.3807 126.432C63.6866 126.432 63.8904 126.406 63.9924 126.406C64.1198 126.406 64.1708 126.432 64.1708 126.508C64.1708 126.559 64.1198 126.61 64.0179 126.61C63.814 126.61 63.6101 126.636 63.4062 126.738C63.0494 126.865 62.6671 127.145 62.2594 127.528C61.2145 128.547 60.4499 129.286 59.9912 129.796C60.1696 130.025 60.6283 130.56 61.3929 131.376C62.132 132.166 62.6162 132.676 62.8455 132.905C63.1769 133.236 63.4317 133.44 63.5591 133.568C63.8395 133.797 64.0943 133.95 64.3492 134.052C64.604 134.154 64.8334 134.205 64.9863 134.205C65.0882 134.205 65.1137 134.23 65.1137 134.281C65.1137 134.358 65.0373 134.383 64.8589 134.383H63.9414C63.6101 134.383 63.3553 134.383 63.2023 134.358C62.9475 134.332 62.7181 134.256 62.5142 134.154C62.3613 134.077 62.1574 133.899 61.9026 133.67C61.6987 133.491 61.189 132.956 60.4244 132.064C59.7109 131.223 59.2776 130.713 59.1502 130.535L59.0228 130.382H58.9718V131.35C58.9718 132.548 58.9718 133.313 58.9973 133.593C59.0228 133.95 59.1502 134.128 59.3796 134.154C59.5579 134.179 59.7363 134.205 59.8893 134.205C59.9912 134.205 60.0167 134.23 60.0167 134.281C60.0167 134.358 59.9402 134.383 59.8128 134.383C59.5834 134.383 59.3031 134.383 58.9208 134.358C58.564 134.358 58.3347 134.332 58.2837 134.332C58.2327 134.332 58.0288 134.332 57.6975 134.358C57.3662 134.358 57.1114 134.383 56.9585 134.383C56.8055 134.383 56.7546 134.358 56.7546 134.281C56.7546 134.23 56.831 134.205 56.9839 134.179C57.0859 134.154 57.1878 134.154 57.2898 134.154C57.4427 134.128 57.5446 133.924 57.5956 133.568C57.6211 133.287 57.6466 132.548 57.6466 131.325V129.465C57.6466 128.216 57.6466 127.451 57.6211 127.222C57.5956 126.891 57.4427 126.687 57.1623 126.61C57.0604 126.585 56.933 126.585 56.7546 126.585C56.6271 126.585 56.5762 126.559 56.5762 126.483C56.5762 126.406 56.6526 126.381 56.8055 126.381C57.0094 126.381 57.2898 126.381 57.6466 126.406C58.0033 126.406 58.2072 126.432 58.2582 126.432C58.3347 126.432 58.5385 126.432 58.8698 126.406C59.2012 126.406 59.405 126.381 59.5325 126.381C59.6854 126.381 59.7618 126.406 59.7618 126.483C59.7618 126.534 59.7109 126.585 59.6089 126.585C59.3541 126.585 59.2012 126.636 59.0992 126.712C58.9973 126.789 58.9463 126.967 58.9208 127.196C59.0482 127.451 59.0482 128.19 59.0482 129.465Z" fill="#33A6DE"/>
<path d="M65.8516 131.3V129.439C65.8516 128.191 65.8516 127.426 65.8261 127.197C65.8007 126.865 65.6477 126.661 65.3674 126.585C65.2655 126.56 65.138 126.56 64.9596 126.56C64.8322 126.56 64.7812 126.534 64.7812 126.458C64.7812 126.381 64.8577 126.356 65.0106 126.356C65.2145 126.356 65.4948 126.356 65.8771 126.381C66.2339 126.381 66.4633 126.407 66.5397 126.407C68.1963 126.407 69.0883 126.407 69.1647 126.407C69.3431 126.381 69.496 126.381 69.6234 126.356C69.7509 126.33 69.8018 126.305 69.8018 126.305C69.8528 126.305 69.8528 126.33 69.8528 126.407C69.8528 126.407 69.8528 126.483 69.8273 126.585C69.8018 126.738 69.8018 126.891 69.7764 127.069C69.7764 127.248 69.7509 127.502 69.7254 127.757C69.6999 127.834 69.6744 127.885 69.6234 127.885C69.5725 127.885 69.547 127.859 69.5215 127.757C69.5215 127.681 69.496 127.604 69.496 127.528C69.496 127.452 69.4705 127.401 69.445 127.35C69.3686 127.146 69.1137 127.018 68.7315 126.967C68.5021 126.942 67.9924 126.916 67.2278 126.916C67.1769 126.916 67.1514 126.942 67.1514 127.018V129.694C67.1514 129.771 67.1769 129.822 67.2278 129.822C68.1963 129.822 68.7569 129.822 68.9099 129.796C69.0373 129.796 69.1137 129.771 69.1902 129.771C69.2921 129.745 69.3686 129.694 69.4196 129.643C69.496 129.541 69.5725 129.516 69.598 129.516C69.6489 129.516 69.6744 129.541 69.6744 129.592C69.6744 129.592 69.6744 129.669 69.6489 129.796C69.6234 129.949 69.598 130.153 69.598 130.357C69.5725 130.765 69.547 130.994 69.547 131.07C69.547 131.198 69.5215 131.274 69.445 131.274C69.3686 131.274 69.3431 131.249 69.3431 131.172C69.3431 131.096 69.3176 130.968 69.2921 130.816C69.2412 130.586 69.0373 130.433 68.706 130.408C68.5021 130.382 68.0179 130.382 67.2023 130.382C67.1514 130.382 67.1259 130.408 67.1259 130.484V132.956C67.1514 133.339 67.2278 133.568 67.3807 133.67C67.5337 133.772 67.865 133.823 68.4002 133.823C68.8844 133.823 69.2157 133.772 69.3941 133.695C69.6489 133.593 69.8018 133.313 69.8783 132.905C69.9038 132.803 69.9293 132.752 70.0057 132.752C70.0567 132.752 70.0822 132.829 70.0822 132.931C70.0822 133.364 70.0312 133.746 69.9548 134.103C69.9293 134.231 69.8783 134.307 69.8018 134.333C69.7509 134.358 69.598 134.384 69.3686 134.384C68.757 134.384 68.1453 134.384 67.5337 134.358C66.922 134.333 66.5652 134.333 66.4378 134.333C66.3868 134.333 66.1829 134.333 65.8516 134.358C65.5203 134.358 65.2655 134.384 65.1126 134.384C64.9596 134.384 64.9087 134.358 64.9087 134.282C64.9087 134.231 64.9851 134.205 65.138 134.18C65.24 134.154 65.3419 134.154 65.4439 134.154C65.5968 134.129 65.6987 133.925 65.7497 133.568C65.8261 133.288 65.8516 132.523 65.8516 131.3Z" fill="#33A6DE"/>
<path d="M75.6895 131.3V129.439C75.6895 128.19 75.6895 127.426 75.664 127.196C75.6386 126.865 75.4856 126.661 75.2053 126.585C75.1034 126.559 74.9759 126.559 74.7975 126.559C74.6701 126.559 74.6191 126.534 74.6191 126.457C74.6191 126.381 74.6956 126.355 74.8485 126.355C75.0779 126.355 75.3582 126.355 75.6895 126.381C76.0463 126.381 76.2247 126.406 76.2757 126.406C76.4541 126.406 76.6834 126.406 76.9638 126.381C77.2441 126.381 77.448 126.355 77.5499 126.355C78.391 126.355 79.0026 126.559 79.3849 126.942C79.6652 127.222 79.7927 127.553 79.7927 127.936C79.7927 128.598 79.4359 129.21 78.7223 129.77C79.232 129.949 79.6652 130.204 79.9965 130.561C80.4298 130.994 80.6337 131.478 80.6337 132.039C80.6337 132.65 80.4043 133.186 79.971 133.619C79.4613 134.103 78.7478 134.358 77.8303 134.358C77.7538 134.358 77.499 134.358 77.0912 134.332C76.6834 134.307 76.4031 134.307 76.3012 134.307C76.2502 134.307 76.0463 134.307 75.715 134.332C75.3837 134.332 75.1289 134.358 74.9759 134.358C74.823 134.358 74.7721 134.332 74.7721 134.256C74.7721 134.205 74.8485 134.179 75.0014 134.154C75.1034 134.128 75.2053 134.128 75.3072 134.128C75.4602 134.103 75.5621 133.899 75.6131 133.542C75.664 133.287 75.6895 132.523 75.6895 131.3ZM76.9638 127.018V129.618C76.9638 129.694 76.9893 129.72 77.0402 129.745C77.1422 129.77 77.2951 129.77 77.5245 129.77C77.8813 129.77 78.1106 129.694 78.289 129.567C78.5694 129.337 78.7223 128.955 78.7223 128.445C78.7223 128.037 78.6203 127.681 78.4165 127.349C78.1616 126.993 77.8303 126.789 77.4225 126.789C77.1932 126.789 77.0402 126.814 77.0148 126.84C76.9893 126.865 76.9638 126.942 76.9638 127.018ZM79.3594 132.574C79.3594 131.656 79.0281 130.943 78.34 130.484C78.1361 130.331 77.8303 130.255 77.4735 130.229C77.3461 130.229 77.1932 130.229 77.0148 130.229C76.9638 130.229 76.9638 130.255 76.9638 130.306V132.803C76.9638 133.16 76.9893 133.415 77.0148 133.517C77.0657 133.644 77.1677 133.746 77.3206 133.823C77.5245 133.899 77.7793 133.95 78.0851 133.95C78.391 133.95 78.6713 133.874 78.9007 133.695C79.2065 133.415 79.3594 133.058 79.3594 132.574Z" fill="#33A6DE"/>
<path d="M82.6973 130.994V129.465C82.6973 128.216 82.6973 127.451 82.6719 127.222C82.6464 126.891 82.4935 126.687 82.2131 126.61C82.1112 126.585 81.9837 126.585 81.8054 126.585C81.6779 126.585 81.627 126.559 81.627 126.483C81.627 126.406 81.7034 126.381 81.8563 126.381C82.0602 126.381 82.3405 126.381 82.7228 126.406C83.0796 126.406 83.309 126.432 83.4109 126.432C83.4874 126.432 83.6913 126.432 84.0226 126.406C84.3539 126.406 84.5832 126.381 84.7107 126.381C84.8636 126.381 84.94 126.406 84.94 126.483C84.94 126.534 84.8891 126.585 84.7616 126.585C84.6852 126.585 84.5832 126.585 84.4558 126.61C84.2265 126.661 84.099 126.84 84.0735 127.222C84.0481 127.451 84.0481 128.19 84.0481 129.465V130.943C84.0481 132.217 84.3284 133.084 84.8636 133.542C85.2204 133.823 85.6536 133.976 86.1888 133.976C86.775 133.976 87.2592 133.797 87.6415 133.415C87.8963 133.16 88.0747 132.778 88.1767 132.294C88.2276 131.962 88.2531 131.478 88.2531 130.79V129.465C88.2531 128.216 88.2531 127.451 88.2276 127.222C88.2022 126.891 88.0492 126.687 87.7689 126.61C87.667 126.585 87.5395 126.585 87.3866 126.585C87.2592 126.585 87.2082 126.559 87.2082 126.483C87.2082 126.406 87.2847 126.381 87.4376 126.381C87.7434 126.381 88.1512 126.381 88.6609 126.406C88.6864 126.406 88.8393 126.406 89.1451 126.381C89.4509 126.381 89.6803 126.355 89.8587 126.355C90.0116 126.355 90.0881 126.381 90.0881 126.457C90.0881 126.508 90.0371 126.559 89.9097 126.559C89.8332 126.559 89.7313 126.559 89.6038 126.585C89.3745 126.636 89.2471 126.84 89.2216 127.196C89.1961 127.426 89.1961 128.165 89.1961 129.439V130.561C89.1961 131.274 89.1451 131.86 89.0177 132.294C88.8648 132.905 88.5844 133.389 88.1767 133.721C87.5905 134.23 86.8514 134.485 85.9849 134.485C84.9655 134.485 84.1755 134.256 83.6403 133.746C83.0032 133.236 82.6973 132.294 82.6973 130.994Z" fill="#33A6DE"/>
<path d="M93.2998 132.497V131.631C93.2998 131.249 93.2233 130.892 93.0449 130.535C92.994 130.459 92.7136 130 92.2294 129.159C91.7197 128.318 91.3884 127.783 91.21 127.502C90.9551 127.12 90.7003 126.865 90.4709 126.738C90.318 126.636 90.1651 126.61 90.0377 126.61C89.9357 126.61 89.8848 126.585 89.8848 126.508C89.8848 126.432 89.9612 126.406 90.0886 126.406C90.1396 126.406 90.3435 126.406 90.7003 126.432C91.0571 126.432 91.2865 126.457 91.4139 126.457C91.4649 126.457 91.6178 126.457 91.8981 126.432C92.153 126.432 92.3823 126.406 92.5607 126.406C92.6627 126.406 92.7136 126.432 92.7136 126.508C92.7136 126.534 92.6372 126.585 92.4843 126.61C92.3823 126.636 92.3313 126.687 92.3313 126.789C92.3313 126.84 92.3823 126.967 92.4588 127.145C92.4843 127.222 93.0959 128.267 94.2427 130.306C94.727 129.439 95.2367 128.471 95.8228 127.4C95.9248 127.171 95.9757 126.993 95.9757 126.84C95.9757 126.687 95.8993 126.61 95.7719 126.585C95.6444 126.559 95.568 126.508 95.568 126.483C95.568 126.406 95.6189 126.381 95.7464 126.381C95.8738 126.381 96.0267 126.381 96.2561 126.406C96.4854 126.406 96.6384 126.432 96.7403 126.432C96.8168 126.432 97.0206 126.432 97.3265 126.406C97.6323 126.406 97.8107 126.381 97.8871 126.381C98.0146 126.381 98.0655 126.406 98.0655 126.457C98.0655 126.534 97.9891 126.559 97.8616 126.559C97.7342 126.559 97.5813 126.61 97.4029 126.687C97.2245 126.763 97.0461 126.942 96.8168 127.196C96.6384 127.4 96.2816 127.961 95.7464 128.853C95.2112 129.745 94.8799 130.306 94.7779 130.56C94.676 130.815 94.625 131.172 94.625 131.605V132.472C94.625 133.083 94.6505 133.491 94.676 133.67C94.727 133.924 94.8544 134.077 95.0838 134.103C95.2876 134.128 95.466 134.154 95.6189 134.154C95.7209 134.154 95.7973 134.179 95.7973 134.23C95.7973 134.307 95.7209 134.332 95.568 134.332C95.3131 134.332 95.0073 134.332 94.625 134.307C94.2427 134.307 94.0134 134.281 93.9624 134.281C93.886 134.281 93.6821 134.281 93.3508 134.307C93.0194 134.307 92.7901 134.332 92.6372 134.332C92.4843 134.332 92.4078 134.307 92.4078 134.23C92.4078 134.179 92.4843 134.154 92.6372 134.128C92.7391 134.103 92.8411 134.103 92.943 134.103C93.1469 134.052 93.2488 133.874 93.2743 133.517C93.2743 133.262 93.2998 132.905 93.2998 132.497Z" fill="#33A6DE"/>
<path d="M99.1616 131.3V129.439C99.1616 128.19 99.1616 127.426 99.1361 127.196C99.1106 126.865 98.9832 126.661 98.7793 126.61C98.6519 126.585 98.55 126.559 98.4225 126.559C98.2951 126.559 98.2441 126.534 98.2441 126.457C98.2441 126.406 98.3206 126.381 98.499 126.381C98.6519 126.381 98.8813 126.381 99.2126 126.406C99.5439 126.406 99.7733 126.432 99.8497 126.432C99.9262 126.432 100.13 126.432 100.436 126.406C100.742 126.406 100.971 126.381 101.124 126.381C101.277 126.381 101.353 126.406 101.353 126.457C101.353 126.534 101.302 126.559 101.2 126.559C101.098 126.559 100.997 126.559 100.869 126.585C100.64 126.636 100.512 126.84 100.487 127.196C100.461 127.426 100.461 128.165 100.461 129.439V131.3C100.461 132.548 100.487 133.338 100.512 133.619C100.538 133.924 100.691 134.103 100.92 134.128C101.124 134.154 101.302 134.179 101.455 134.179C101.557 134.179 101.634 134.205 101.634 134.256C101.634 134.332 101.557 134.358 101.43 134.358C101.175 134.358 100.844 134.358 100.461 134.332C100.079 134.332 99.8497 134.307 99.7987 134.307C99.7478 134.307 99.5439 134.307 99.2126 134.332C98.8813 134.332 98.6264 134.358 98.4735 134.358C98.3206 134.358 98.2696 134.332 98.2696 134.256C98.2696 134.205 98.3461 134.179 98.499 134.154C98.6009 134.128 98.7029 134.128 98.8048 134.128C98.9832 134.103 99.0852 133.924 99.1106 133.593C99.1616 133.313 99.1616 132.523 99.1616 131.3Z" fill="#33A6DE"/>
<path d="M104.411 128.496L104.538 132.931C104.564 133.644 104.691 134.027 104.895 134.103C104.921 134.103 105.048 134.129 105.303 134.154C105.507 134.18 105.609 134.205 105.609 134.256C105.609 134.332 105.532 134.358 105.354 134.358C105.099 134.358 104.819 134.358 104.513 134.332C104.232 134.332 104.054 134.307 104.029 134.307C104.029 134.307 103.901 134.307 103.621 134.332C103.34 134.332 103.111 134.358 102.882 134.358C102.729 134.358 102.652 134.332 102.652 134.256C102.652 134.205 102.754 134.18 102.933 134.154C103.06 134.129 103.188 134.129 103.289 134.103C103.417 134.052 103.519 133.95 103.544 133.772C103.57 133.619 103.595 133.288 103.595 132.803L103.697 126.559C103.697 126.33 103.748 126.203 103.825 126.203C103.876 126.203 104.003 126.305 104.207 126.534C104.793 127.146 105.863 128.292 107.469 129.923C108.183 130.663 108.947 131.478 109.788 132.319H109.839L109.737 127.579C109.737 127.324 109.712 127.146 109.686 127.044C109.635 126.84 109.533 126.687 109.38 126.636C109.279 126.585 109.1 126.585 108.82 126.585C108.718 126.585 108.641 126.559 108.641 126.483C108.641 126.407 108.743 126.381 108.922 126.381C109.126 126.381 109.38 126.381 109.686 126.407C109.992 126.407 110.145 126.432 110.196 126.432C110.196 126.432 110.323 126.432 110.553 126.407C110.782 126.407 111.012 126.381 111.215 126.381C111.368 126.381 111.47 126.407 111.47 126.483C111.47 126.534 111.419 126.585 111.292 126.585C110.935 126.585 110.731 126.712 110.655 126.942C110.629 127.069 110.604 127.273 110.604 127.528L110.476 134.18C110.476 134.409 110.425 134.511 110.349 134.511C110.272 134.511 110.145 134.434 109.992 134.281C109.329 133.619 108.285 132.574 106.883 131.172C106.399 130.714 105.863 130.153 105.277 129.49C104.972 129.159 104.666 128.828 104.385 128.522H104.411V128.496Z" fill="#33A6DE"/>
<path d="M120.315 132.498V133.67C120.315 133.874 120.264 134.001 120.188 134.052C119.601 134.358 118.735 134.537 117.639 134.537C116.237 134.537 115.116 134.205 114.25 133.568C113.281 132.829 112.797 131.784 112.797 130.408C112.797 129.618 112.975 128.904 113.358 128.267C113.689 127.706 114.097 127.273 114.632 126.967C115.396 126.509 116.339 126.279 117.461 126.279C118.123 126.279 118.76 126.33 119.321 126.458C119.652 126.534 119.933 126.56 120.162 126.585C120.264 126.585 120.315 126.636 120.315 126.713C120.315 126.662 120.315 126.789 120.29 127.12C120.264 127.452 120.264 127.885 120.264 128.446C120.264 128.598 120.239 128.675 120.137 128.675C120.086 128.675 120.035 128.624 120.035 128.547C119.984 128.165 119.856 127.885 119.678 127.681C119.499 127.477 119.219 127.299 118.837 127.146C118.378 126.967 117.868 126.865 117.333 126.865C116.467 126.865 115.779 127.095 115.243 127.528C114.606 128.063 114.275 128.93 114.275 130.102C114.275 131.249 114.606 132.192 115.294 132.931C115.957 133.67 116.849 134.052 117.945 134.052C118.531 134.052 118.862 133.976 118.964 133.823C119.015 133.772 119.041 133.67 119.041 133.543V132.549C119.041 131.937 119.041 131.529 119.041 131.3C119.041 130.969 118.888 130.765 118.582 130.688C118.48 130.663 118.353 130.663 118.174 130.663C118.072 130.663 118.021 130.637 118.021 130.586C118.021 130.51 118.098 130.484 118.251 130.484C118.455 130.484 118.735 130.484 119.092 130.51C119.449 130.51 119.678 130.535 119.754 130.535C119.856 130.535 120.06 130.535 120.366 130.51C120.672 130.484 120.876 130.484 121.003 130.484C121.156 130.484 121.207 130.51 121.207 130.586C121.207 130.637 121.156 130.663 121.08 130.663C121.003 130.663 120.901 130.663 120.774 130.688C120.519 130.739 120.391 130.943 120.366 131.3C120.315 131.453 120.315 131.886 120.315 132.498Z" fill="#33A6DE"/>
<path d="M126.431 131.3V129.439C126.431 128.19 126.431 127.426 126.406 127.196C126.38 126.865 126.253 126.661 126.049 126.61C125.921 126.585 125.819 126.559 125.692 126.559C125.565 126.559 125.514 126.534 125.514 126.457C125.514 126.406 125.59 126.381 125.769 126.381C125.921 126.381 126.151 126.381 126.482 126.406C126.813 126.406 127.043 126.432 127.119 126.432C127.196 126.432 127.4 126.432 127.705 126.406C128.011 126.406 128.241 126.381 128.394 126.381C128.546 126.381 128.623 126.406 128.623 126.457C128.623 126.534 128.572 126.559 128.47 126.559C128.368 126.559 128.266 126.559 128.139 126.585C127.909 126.636 127.782 126.84 127.756 127.196C127.731 127.426 127.731 128.165 127.731 129.439V131.3C127.731 132.548 127.756 133.338 127.782 133.619C127.807 133.924 127.96 134.103 128.19 134.128C128.394 134.154 128.572 134.179 128.725 134.179C128.827 134.179 128.903 134.205 128.903 134.256C128.903 134.332 128.827 134.358 128.699 134.358C128.444 134.358 128.113 134.358 127.731 134.332C127.349 134.332 127.119 134.307 127.068 134.307C127.017 134.307 126.813 134.307 126.482 134.332C126.151 134.332 125.896 134.358 125.743 134.358C125.59 134.358 125.539 134.332 125.539 134.256C125.539 134.205 125.616 134.179 125.769 134.154C125.87 134.128 125.972 134.128 126.074 134.128C126.253 134.103 126.355 133.924 126.38 133.593C126.406 133.313 126.431 132.523 126.431 131.3Z" fill="#33A6DE"/>
<path d="M131.68 128.496L131.808 132.931C131.833 133.644 131.961 134.027 132.165 134.103C132.19 134.103 132.317 134.129 132.572 134.154C132.776 134.18 132.878 134.205 132.878 134.256C132.878 134.332 132.802 134.358 132.623 134.358C132.368 134.358 132.088 134.358 131.782 134.332C131.502 134.332 131.324 134.307 131.298 134.307C131.298 134.307 131.171 134.307 130.89 134.332C130.61 134.332 130.381 134.358 130.151 134.358C129.998 134.358 129.922 134.332 129.922 134.256C129.922 134.205 130.024 134.18 130.202 134.154C130.33 134.129 130.457 134.129 130.559 134.103C130.686 134.052 130.788 133.95 130.814 133.772C130.839 133.619 130.865 133.288 130.865 132.803L130.967 126.559C130.967 126.33 131.018 126.203 131.094 126.203C131.145 126.203 131.273 126.305 131.476 126.534C132.063 127.146 133.133 128.292 134.739 129.923C135.452 130.663 136.217 131.478 137.058 132.319H137.109L137.007 127.579C137.007 127.324 136.981 127.146 136.956 127.044C136.905 126.84 136.803 126.687 136.65 126.636C136.548 126.585 136.37 126.585 136.089 126.585C135.987 126.585 135.911 126.559 135.911 126.483C135.911 126.407 136.013 126.381 136.191 126.381C136.395 126.381 136.65 126.381 136.956 126.407C137.262 126.407 137.415 126.432 137.466 126.432C137.466 126.432 137.593 126.432 137.822 126.407C138.052 126.407 138.281 126.381 138.485 126.381C138.638 126.381 138.74 126.407 138.74 126.483C138.74 126.534 138.689 126.585 138.561 126.585C138.205 126.585 138.001 126.712 137.924 126.942C137.899 127.069 137.873 127.273 137.873 127.528L137.746 134.18C137.746 134.409 137.695 134.511 137.618 134.511C137.542 134.511 137.415 134.434 137.262 134.281C136.599 133.619 135.554 132.574 134.152 131.172C133.668 130.714 133.133 130.153 132.547 129.49C132.241 129.159 131.935 128.828 131.655 128.522H131.68V128.496Z" fill="#33A6DE"/>
<path d="M142.129 134.511C141.518 134.511 141.008 134.409 140.6 134.23C140.473 134.179 140.396 134.052 140.396 133.874C140.396 133.491 140.422 133.032 140.447 132.497C140.473 132.319 140.498 132.217 140.575 132.217C140.651 132.217 140.677 132.268 140.677 132.395C140.677 132.548 140.702 132.727 140.779 132.931C140.983 133.644 141.492 134.001 142.282 134.001C142.716 134.001 143.072 133.874 143.353 133.619C143.582 133.389 143.71 133.109 143.71 132.803C143.71 132.217 143.353 131.656 142.665 131.121L142.18 130.739C141.136 129.923 140.626 129.082 140.626 128.241C140.626 127.655 140.855 127.171 141.288 126.814C141.747 126.432 142.333 126.253 143.047 126.253C143.506 126.253 143.964 126.304 144.449 126.432C144.551 126.457 144.602 126.508 144.602 126.559C144.602 126.534 144.602 126.661 144.576 126.942C144.551 127.196 144.551 127.502 144.551 127.834C144.551 128.037 144.525 128.139 144.423 128.139C144.347 128.139 144.321 128.063 144.321 127.961C144.321 127.732 144.219 127.502 144.041 127.273C143.761 126.942 143.378 126.763 142.894 126.763C142.512 126.763 142.206 126.865 141.977 127.069C141.747 127.273 141.645 127.528 141.645 127.859C141.645 128.114 141.722 128.343 141.875 128.573C142.028 128.802 142.333 129.057 142.767 129.388L143.072 129.617C143.71 130.102 144.143 130.535 144.423 130.943C144.678 131.35 144.805 131.809 144.805 132.319C144.805 133.109 144.474 133.721 143.811 134.154C143.353 134.383 142.792 134.511 142.129 134.511Z" fill="#33A6DE"/>
<path d="M146.869 130.994V129.465C146.869 128.216 146.869 127.451 146.844 127.222C146.818 126.891 146.665 126.687 146.385 126.61C146.283 126.585 146.156 126.585 145.977 126.585C145.85 126.585 145.799 126.559 145.799 126.483C145.799 126.406 145.875 126.381 146.028 126.381C146.232 126.381 146.512 126.381 146.895 126.406C147.252 126.406 147.481 126.432 147.583 126.432C147.659 126.432 147.863 126.432 148.194 126.406C148.526 126.406 148.755 126.381 148.883 126.381C149.035 126.381 149.112 126.406 149.112 126.483C149.112 126.534 149.061 126.585 148.934 126.585C148.857 126.585 148.755 126.585 148.628 126.61C148.398 126.661 148.271 126.84 148.245 127.222C148.22 127.451 148.22 128.19 148.22 129.465V130.943C148.22 132.217 148.5 133.084 149.035 133.542C149.392 133.823 149.826 133.976 150.361 133.976C150.947 133.976 151.431 133.797 151.813 133.415C152.068 133.16 152.247 132.778 152.349 132.294C152.4 131.962 152.425 131.478 152.425 130.79V129.465C152.425 128.216 152.425 127.451 152.4 127.222C152.374 126.891 152.221 126.687 151.941 126.61C151.839 126.585 151.711 126.585 151.559 126.585C151.431 126.585 151.38 126.559 151.38 126.483C151.38 126.406 151.457 126.381 151.609 126.381C151.915 126.381 152.323 126.381 152.833 126.406C152.858 126.406 153.011 126.406 153.317 126.381C153.623 126.381 153.852 126.355 154.031 126.355C154.183 126.355 154.26 126.381 154.26 126.457C154.26 126.508 154.209 126.559 154.082 126.559C154.005 126.559 153.903 126.559 153.776 126.585C153.546 126.636 153.419 126.84 153.393 127.196C153.368 127.426 153.368 128.165 153.368 129.439V130.561C153.368 131.274 153.317 131.86 153.19 132.294C153.037 132.905 152.756 133.389 152.349 133.721C151.762 134.23 151.023 134.485 150.157 134.485C149.137 134.485 148.347 134.256 147.812 133.746C147.175 133.236 146.869 132.294 146.869 130.994Z" fill="#33A6DE"/>
<path d="M156.274 131.3V129.439C156.274 128.19 156.273 127.426 156.248 127.196C156.223 126.865 156.07 126.661 155.789 126.585C155.687 126.559 155.56 126.559 155.382 126.559C155.254 126.559 155.203 126.534 155.203 126.457C155.203 126.381 155.28 126.355 155.432 126.355C155.662 126.355 155.942 126.355 156.274 126.381C156.63 126.381 156.834 126.406 156.86 126.406C156.987 126.406 157.242 126.406 157.624 126.381C158.007 126.381 158.261 126.355 158.363 126.355C159.204 126.355 159.867 126.508 160.3 126.814C160.479 126.942 160.631 127.12 160.759 127.349C160.937 127.63 161.014 127.936 161.014 128.267C161.014 129.082 160.555 129.872 159.612 130.637C160.377 131.605 160.81 132.141 160.886 132.217C161.294 132.727 161.625 133.135 161.906 133.415C162.288 133.823 162.696 134.052 163.078 134.128C163.155 134.128 163.231 134.154 163.333 134.154C163.46 134.179 163.511 134.205 163.511 134.256C163.511 134.332 163.435 134.358 163.307 134.358H162.339C161.829 134.358 161.447 134.281 161.218 134.154C160.861 133.976 160.402 133.466 159.765 132.599C159.459 132.166 159.102 131.682 158.72 131.147C158.669 131.096 158.618 131.07 158.542 131.07H157.624C157.573 131.07 157.548 131.096 157.548 131.147V131.3C157.548 132.497 157.573 133.236 157.599 133.542C157.65 133.899 157.777 134.103 158.007 134.128C158.21 134.154 158.389 134.179 158.516 134.179C158.593 134.179 158.644 134.205 158.644 134.256C158.644 134.332 158.567 134.358 158.44 134.358C158.21 134.358 157.879 134.358 157.497 134.332C157.115 134.332 156.911 134.307 156.885 134.307C156.834 134.307 156.656 134.307 156.324 134.332C155.993 134.332 155.764 134.358 155.585 134.358C155.432 134.358 155.382 134.332 155.382 134.256C155.382 134.205 155.458 134.179 155.611 134.154C155.713 134.128 155.815 134.128 155.917 134.128C156.07 134.103 156.172 133.899 156.223 133.542C156.274 133.287 156.274 132.523 156.274 131.3ZM157.522 127.095V130.306C157.522 130.408 157.548 130.484 157.624 130.484C157.828 130.561 158.083 130.586 158.414 130.586C158.746 130.586 159 130.535 159.153 130.408C159.561 130.102 159.765 129.567 159.765 128.828C159.765 128.165 159.587 127.655 159.204 127.298C158.898 127.044 158.542 126.891 158.159 126.891C157.828 126.891 157.624 126.916 157.548 126.942C157.548 126.967 157.522 127.018 157.522 127.095Z" fill="#33A6DE"/>
<path d="M167.029 131.605H164.684C164.633 131.605 164.608 131.631 164.582 131.682L164.022 133.186C163.92 133.466 163.869 133.67 163.869 133.823C163.869 134.052 164.022 134.154 164.302 134.154H164.455C164.557 134.154 164.608 134.18 164.608 134.23C164.608 134.307 164.557 134.332 164.429 134.332C164.328 134.332 164.124 134.332 163.869 134.307C163.614 134.307 163.41 134.281 163.308 134.281C162.696 134.307 162.289 134.307 162.059 134.307C161.932 134.307 161.855 134.281 161.855 134.205C161.855 134.154 161.906 134.129 161.983 134.129C162.085 134.129 162.212 134.129 162.314 134.103C162.544 134.078 162.722 133.976 162.849 133.797C162.951 133.67 163.079 133.44 163.206 133.135L165.857 126.508C165.959 126.228 166.061 126.075 166.162 126.075C166.239 126.075 166.315 126.177 166.417 126.407C167.054 128.038 167.946 130.204 169.042 132.88C169.348 133.568 169.654 133.95 169.96 134.027C170.087 134.052 170.24 134.078 170.393 134.078C170.495 134.078 170.52 134.103 170.52 134.154C170.52 134.205 170.495 134.23 170.419 134.23C170.342 134.256 170.215 134.256 170.036 134.256C169.17 134.256 168.507 134.256 168.048 134.23C167.845 134.23 167.743 134.205 167.743 134.154C167.743 134.103 167.794 134.078 167.895 134.052C167.997 134.027 168.048 133.925 167.997 133.797L167.156 131.555C167.105 131.631 167.08 131.605 167.029 131.605ZM164.888 131.096H166.825C166.876 131.096 166.902 131.07 166.876 131.045L165.933 128.445C165.908 128.394 165.908 128.343 165.882 128.343C165.857 128.343 165.831 128.369 165.831 128.445L164.863 131.045C164.837 131.07 164.837 131.096 164.888 131.096Z" fill="#33A6DE"/>
<path d="M172.1 128.496L172.228 132.931C172.253 133.644 172.381 134.027 172.584 134.103C172.61 134.103 172.737 134.129 172.992 134.154C173.196 134.18 173.298 134.205 173.298 134.256C173.298 134.332 173.222 134.358 173.043 134.358C172.788 134.358 172.508 134.358 172.202 134.332C171.922 134.332 171.743 134.307 171.718 134.307C171.718 134.307 171.591 134.307 171.31 134.332C171.03 134.332 170.801 134.358 170.571 134.358C170.418 134.358 170.342 134.332 170.342 134.256C170.342 134.205 170.444 134.18 170.622 134.154C170.75 134.129 170.877 134.129 170.979 134.103C171.106 134.052 171.208 133.95 171.234 133.772C171.259 133.619 171.285 133.288 171.285 132.803L171.387 126.559C171.387 126.33 171.438 126.203 171.514 126.203C171.565 126.203 171.693 126.305 171.896 126.534C172.483 127.146 173.553 128.292 175.159 129.923C175.872 130.663 176.637 131.478 177.478 132.319H177.529L177.427 127.579C177.427 127.324 177.401 127.146 177.376 127.044C177.325 126.84 177.223 126.687 177.07 126.636C176.968 126.585 176.79 126.585 176.509 126.585C176.407 126.585 176.331 126.559 176.331 126.483C176.331 126.407 176.433 126.381 176.611 126.381C176.815 126.381 177.07 126.381 177.376 126.407C177.682 126.407 177.834 126.432 177.885 126.432C177.885 126.432 178.013 126.432 178.242 126.407C178.472 126.407 178.701 126.381 178.905 126.381C179.058 126.381 179.16 126.407 179.16 126.483C179.16 126.534 179.109 126.585 178.981 126.585C178.624 126.585 178.421 126.712 178.344 126.942C178.319 127.069 178.293 127.273 178.293 127.528L178.166 134.18C178.166 134.409 178.115 134.511 178.038 134.511C177.962 134.511 177.834 134.434 177.682 134.281C177.019 133.619 175.974 132.574 174.572 131.172C174.088 130.714 173.553 130.153 172.967 129.49C172.661 129.159 172.355 128.828 172.075 128.522H172.1V128.496Z" fill="#33A6DE"/>
<path d="M185.378 134.511C183.849 134.511 182.651 134.128 181.759 133.364C180.892 132.599 180.434 131.554 180.434 130.255C180.434 129.082 180.841 128.114 181.657 127.375C182.472 126.636 183.594 126.253 184.995 126.253C185.48 126.253 185.989 126.279 186.525 126.355C186.779 126.406 187.136 126.457 187.569 126.534C187.671 126.534 187.722 126.585 187.722 126.661C187.722 126.687 187.722 126.738 187.697 126.84C187.671 126.967 187.671 127.094 187.646 127.247C187.646 127.553 187.62 127.935 187.595 128.394C187.569 128.547 187.544 128.649 187.468 128.649C187.391 128.649 187.366 128.573 187.366 128.42C187.366 128.063 187.213 127.732 186.958 127.451C186.779 127.273 186.499 127.094 186.117 126.992C185.709 126.865 185.276 126.814 184.817 126.814C183.976 126.814 183.313 127.043 182.829 127.477C182.192 128.063 181.861 128.98 181.861 130.204C181.861 131.376 182.243 132.293 182.982 133.007C183.645 133.644 184.358 133.95 185.174 133.95C185.633 133.95 185.964 133.924 186.219 133.874C186.601 133.797 186.881 133.619 187.111 133.364C187.289 133.16 187.417 132.931 187.468 132.676C187.493 132.523 187.544 132.472 187.595 132.472C187.646 132.472 187.697 132.523 187.697 132.625C187.697 132.701 187.671 132.905 187.62 133.236C187.569 133.593 187.518 133.874 187.468 134.026C187.417 134.179 187.34 134.281 187.187 134.332C186.881 134.434 186.244 134.511 185.378 134.511Z" fill="#33A6DE"/>
<path d="M190.043 131.3V129.439C190.043 128.191 190.043 127.426 190.018 127.197C189.992 126.865 189.839 126.661 189.559 126.585C189.457 126.56 189.329 126.56 189.151 126.56C189.024 126.56 188.973 126.534 188.973 126.458C188.973 126.381 189.049 126.356 189.202 126.356C189.406 126.356 189.686 126.356 190.069 126.381C190.425 126.381 190.655 126.407 190.731 126.407C192.388 126.407 193.28 126.407 193.356 126.407C193.535 126.381 193.687 126.381 193.815 126.356C193.942 126.33 193.993 126.305 193.993 126.305C194.044 126.305 194.044 126.33 194.044 126.407C194.044 126.407 194.044 126.483 194.019 126.585C193.993 126.738 193.993 126.891 193.968 127.069C193.968 127.248 193.942 127.502 193.917 127.757C193.891 127.834 193.866 127.885 193.815 127.885C193.764 127.885 193.738 127.859 193.713 127.757C193.713 127.681 193.687 127.604 193.687 127.528C193.687 127.452 193.662 127.401 193.636 127.35C193.56 127.146 193.305 127.018 192.923 126.967C192.694 126.942 192.184 126.916 191.419 126.916C191.368 126.916 191.343 126.942 191.343 127.018V129.694C191.343 129.771 191.368 129.822 191.419 129.822C192.388 129.822 192.948 129.822 193.101 129.796C193.229 129.796 193.305 129.771 193.382 129.771C193.484 129.745 193.56 129.694 193.611 129.643C193.687 129.541 193.764 129.516 193.789 129.516C193.84 129.516 193.866 129.541 193.866 129.592C193.866 129.592 193.866 129.669 193.84 129.796C193.815 129.949 193.789 130.153 193.789 130.357C193.764 130.765 193.738 130.994 193.738 131.07C193.738 131.198 193.713 131.274 193.636 131.274C193.56 131.274 193.535 131.249 193.535 131.172C193.535 131.096 193.509 130.968 193.484 130.816C193.433 130.586 193.229 130.433 192.897 130.408C192.694 130.382 192.209 130.382 191.394 130.382C191.343 130.382 191.317 130.408 191.317 130.484V132.956C191.343 133.339 191.419 133.568 191.572 133.67C191.725 133.772 192.056 133.823 192.592 133.823C193.076 133.823 193.407 133.772 193.585 133.695C193.84 133.593 193.993 133.313 194.07 132.905C194.095 132.803 194.121 132.752 194.197 132.752C194.248 132.752 194.274 132.829 194.274 132.931C194.274 133.364 194.223 133.746 194.146 134.103C194.121 134.231 194.07 134.307 193.993 134.333C193.942 134.358 193.789 134.384 193.56 134.384C192.948 134.384 192.337 134.384 191.725 134.358C191.113 134.333 190.757 134.333 190.629 134.333C190.578 134.333 190.374 134.333 190.043 134.358C189.712 134.358 189.457 134.384 189.304 134.384C189.151 134.384 189.1 134.358 189.1 134.282C189.1 134.231 189.177 134.205 189.329 134.18C189.431 134.154 189.533 134.154 189.635 134.154C189.788 134.129 189.89 133.925 189.941 133.568C190.018 133.288 190.043 132.523 190.043 131.3Z" fill="#33A6DE"/>
<path d="M199.854 131.3V129.439C199.854 128.191 199.854 127.426 199.828 127.197C199.803 126.865 199.65 126.661 199.369 126.585C199.267 126.56 199.14 126.56 198.962 126.56C198.834 126.56 198.783 126.534 198.783 126.458C198.783 126.381 198.86 126.356 199.013 126.356C199.216 126.356 199.497 126.356 199.879 126.381C200.236 126.381 200.465 126.407 200.542 126.407C202.198 126.407 203.09 126.407 203.167 126.407C203.345 126.381 203.498 126.381 203.625 126.356C203.753 126.33 203.804 126.305 203.804 126.305C203.855 126.305 203.855 126.33 203.855 126.407C203.855 126.407 203.855 126.483 203.829 126.585C203.804 126.738 203.804 126.891 203.778 127.069C203.778 127.248 203.753 127.502 203.727 127.757C203.702 127.834 203.676 127.885 203.625 127.885C203.574 127.885 203.549 127.859 203.523 127.757C203.523 127.681 203.498 127.604 203.498 127.528C203.498 127.452 203.472 127.401 203.447 127.35C203.371 127.146 203.116 127.018 202.733 126.967C202.504 126.942 201.994 126.916 201.23 126.916C201.179 126.916 201.153 126.942 201.153 127.018V129.694C201.153 129.771 201.179 129.822 201.23 129.822C202.198 129.822 202.759 129.822 202.912 129.796C203.039 129.796 203.116 129.771 203.192 129.771C203.294 129.745 203.371 129.694 203.422 129.643C203.498 129.541 203.574 129.516 203.6 129.516C203.651 129.516 203.676 129.541 203.676 129.592C203.676 129.592 203.676 129.669 203.651 129.796C203.625 129.949 203.6 130.153 203.6 130.357C203.574 130.765 203.549 130.994 203.549 131.07C203.549 131.198 203.523 131.274 203.447 131.274C203.371 131.274 203.345 131.249 203.345 131.172C203.345 131.096 203.32 130.968 203.294 130.816C203.243 130.586 203.039 130.433 202.708 130.408C202.504 130.382 202.02 130.382 201.204 130.382C201.153 130.382 201.128 130.408 201.128 130.484V132.956C201.153 133.339 201.23 133.568 201.383 133.67C201.536 133.772 201.867 133.823 202.402 133.823C202.886 133.823 203.218 133.772 203.396 133.695C203.651 133.593 203.804 133.313 203.88 132.905C203.906 132.803 203.931 132.752 204.008 132.752C204.059 132.752 204.084 132.829 204.084 132.931C204.084 133.364 204.033 133.746 203.957 134.103C203.931 134.231 203.88 134.307 203.804 134.333C203.753 134.358 203.6 134.384 203.371 134.384C202.759 134.384 202.147 134.384 201.536 134.358C200.924 134.333 200.567 134.333 200.44 134.333C200.389 134.333 200.185 134.333 199.854 134.358C199.522 134.358 199.267 134.384 199.115 134.384C198.962 134.384 198.911 134.358 198.911 134.282C198.911 134.231 198.987 134.205 199.14 134.18C199.242 134.154 199.344 134.154 199.446 134.154C199.599 134.129 199.701 133.925 199.752 133.568C199.854 133.288 199.854 132.523 199.854 131.3Z" fill="#33A6DE"/>
<path d="M209.308 131.605H206.964C206.913 131.605 206.887 131.631 206.862 131.682L206.301 133.186C206.199 133.466 206.148 133.67 206.148 133.823C206.148 134.052 206.301 134.154 206.581 134.154H206.734C206.836 134.154 206.887 134.18 206.887 134.23C206.887 134.307 206.836 134.332 206.709 134.332C206.607 134.332 206.403 134.332 206.148 134.307C205.893 134.307 205.689 134.281 205.587 134.281C204.976 134.307 204.568 134.307 204.339 134.307C204.211 134.307 204.135 134.281 204.135 134.205C204.135 134.154 204.186 134.129 204.262 134.129C204.364 134.129 204.492 134.129 204.593 134.103C204.823 134.078 205.001 133.976 205.129 133.797C205.231 133.67 205.358 133.44 205.485 133.135L208.136 126.508C208.238 126.228 208.34 126.075 208.442 126.075C208.518 126.075 208.595 126.177 208.697 126.407C209.334 128.038 210.226 130.204 211.322 132.88C211.627 133.568 211.933 133.95 212.239 134.027C212.367 134.052 212.519 134.078 212.672 134.078C212.774 134.078 212.8 134.103 212.8 134.154C212.8 134.205 212.774 134.23 212.698 134.23C212.621 134.256 212.494 134.256 212.316 134.256C211.449 134.256 210.786 134.256 210.328 134.23C210.124 134.23 210.022 134.205 210.022 134.154C210.022 134.103 210.073 134.078 210.175 134.052C210.277 134.027 210.328 133.925 210.277 133.797L209.436 131.555C209.385 131.631 209.359 131.605 209.308 131.605ZM207.168 131.096H209.104C209.155 131.096 209.181 131.07 209.155 131.045L208.212 128.445C208.187 128.394 208.187 128.343 208.161 128.343C208.136 128.343 208.11 128.369 208.11 128.445L207.142 131.045C207.117 131.07 207.117 131.096 207.168 131.096Z" fill="#33A6DE"/>
<path d="M214.864 134.511C214.252 134.511 213.743 134.409 213.335 134.23C213.207 134.179 213.131 134.052 213.131 133.874C213.131 133.491 213.156 133.032 213.182 132.497C213.207 132.319 213.233 132.217 213.309 132.217C213.386 132.217 213.411 132.268 213.411 132.395C213.411 132.548 213.437 132.727 213.513 132.931C213.717 133.644 214.227 134.001 215.017 134.001C215.45 134.001 215.807 133.874 216.087 133.619C216.317 133.389 216.444 133.109 216.444 132.803C216.444 132.217 216.113 131.656 215.399 131.121L214.915 130.739C213.87 129.923 213.36 129.082 213.36 128.241C213.36 127.655 213.59 127.171 214.048 126.814C214.507 126.432 215.093 126.253 215.807 126.253C216.266 126.253 216.724 126.304 217.209 126.432C217.31 126.457 217.361 126.508 217.361 126.559C217.361 126.534 217.361 126.661 217.336 126.942C217.31 127.196 217.31 127.502 217.31 127.834C217.31 128.037 217.259 128.139 217.183 128.139C217.107 128.139 217.081 128.063 217.081 127.961C217.081 127.732 216.979 127.502 216.801 127.273C216.52 126.942 216.138 126.763 215.654 126.763C215.272 126.763 214.966 126.865 214.736 127.069C214.507 127.273 214.405 127.528 214.405 127.859C214.405 128.114 214.482 128.343 214.634 128.573C214.787 128.802 215.093 129.057 215.526 129.388L215.832 129.617C216.469 130.102 216.903 130.535 217.183 130.943C217.438 131.35 217.565 131.809 217.565 132.319C217.565 133.109 217.234 133.721 216.571 134.154C216.087 134.383 215.526 134.511 214.864 134.511Z" fill="#33A6DE"/>
<path d="M221.21 132.497V131.631C221.21 131.249 221.133 130.892 220.955 130.535C220.904 130.459 220.649 130 220.14 129.159C219.63 128.318 219.299 127.783 219.12 127.502C218.865 127.12 218.61 126.865 218.381 126.738C218.228 126.636 218.075 126.61 217.948 126.61C217.846 126.61 217.795 126.585 217.795 126.508C217.795 126.432 217.871 126.406 217.999 126.406C218.05 126.406 218.254 126.406 218.61 126.432C218.967 126.432 219.197 126.457 219.324 126.457C219.375 126.457 219.528 126.457 219.808 126.432C220.063 126.432 220.292 126.406 220.471 126.406C220.573 126.406 220.624 126.432 220.624 126.508C220.624 126.534 220.547 126.585 220.394 126.61C220.292 126.636 220.242 126.687 220.242 126.789C220.242 126.84 220.292 126.967 220.369 127.145C220.394 127.222 221.006 128.267 222.153 130.306C222.637 129.439 223.147 128.471 223.733 127.4C223.835 127.171 223.886 126.993 223.886 126.84C223.886 126.687 223.809 126.61 223.682 126.585C223.555 126.559 223.478 126.508 223.478 126.483C223.478 126.406 223.529 126.381 223.657 126.381C223.784 126.381 223.937 126.381 224.166 126.406C224.396 126.406 224.549 126.432 224.65 126.432C224.727 126.432 224.931 126.432 225.237 126.406C225.542 126.406 225.721 126.381 225.797 126.381C225.925 126.381 225.976 126.406 225.976 126.457C225.976 126.534 225.899 126.559 225.772 126.559C225.644 126.559 225.491 126.61 225.313 126.687C225.135 126.763 224.956 126.942 224.727 127.196C224.549 127.4 224.192 127.961 223.657 128.853C223.121 129.745 222.79 130.306 222.688 130.56C222.586 130.815 222.535 131.172 222.535 131.605V132.472C222.535 133.083 222.561 133.491 222.586 133.67C222.637 133.924 222.765 134.077 222.994 134.103C223.198 134.128 223.376 134.154 223.529 134.154C223.631 134.154 223.708 134.179 223.708 134.23C223.708 134.307 223.631 134.332 223.478 134.332C223.223 134.332 222.917 134.332 222.535 134.307C222.153 134.307 221.924 134.281 221.873 134.281C221.796 134.281 221.592 134.281 221.261 134.307C220.93 134.307 220.7 134.332 220.547 134.332C220.394 134.332 220.318 134.307 220.318 134.23C220.318 134.179 220.394 134.154 220.547 134.128C220.649 134.103 220.751 134.103 220.853 134.103C221.057 134.052 221.159 133.874 221.184 133.517C221.21 133.262 221.21 132.905 221.21 132.497Z" fill="#33A6DE"/>
<path d="M108.285 86.242C107.903 86.1401 107.546 85.9872 107.164 85.8598C108.183 79.7943 102.933 78.9023 102.933 78.9023C102.602 82.827 104.437 84.611 105.813 85.3755C104.437 84.8913 103.086 84.3561 101.761 83.7445C103.367 78.0868 98.4226 76.5576 98.4226 76.5576C97.7345 79.6923 98.652 81.6037 99.6969 82.7251C98.6775 82.1899 97.658 81.6292 96.6896 81.0176C98.8304 75.7676 94.243 73.6523 94.243 73.6523C93.2236 76.4047 93.7078 78.3416 94.4724 79.6159C93.6314 79.0297 92.7649 78.4181 91.9748 77.7809C94.7017 72.9132 90.4712 70.2118 90.4712 70.2118C89.1714 72.6839 89.2989 74.5953 89.8341 75.946C89.095 75.2834 88.4069 74.6208 87.7188 73.9327C90.9809 69.4982 87.1836 66.3126 87.1836 66.3126C85.578 68.5553 85.4506 70.4412 85.7819 71.8429C85.1448 71.1293 84.5331 70.3902 83.947 69.6256C87.7952 65.6499 84.4567 61.9801 84.4567 61.9801C82.5198 64.0699 82.163 65.9558 82.3414 67.4084C81.7807 66.5929 81.271 65.7264 80.7868 64.8854C85.1703 61.4449 82.3414 57.3418 82.3414 57.3418C80.0987 59.2022 79.5125 61.0626 79.538 62.5407C79.0793 61.6233 78.646 60.7058 78.2638 59.7629C83.1569 56.934 80.8633 52.4486 80.8633 52.4486C78.2383 54.0796 77.4737 56.0165 77.3463 57.5202C76.964 56.4753 76.6582 55.4304 76.3524 54.36C81.7043 52.2447 80.0222 47.428 80.0222 47.428C77.0914 48.7532 76.123 50.6391 75.8427 52.1682C75.5878 51.0469 75.3839 49.9001 75.231 48.7532C80.9142 47.377 79.8693 42.3309 79.8693 42.3309C76.5308 43.3249 75.3584 45.3127 75.0016 46.8163C74.8997 45.5676 74.8232 44.2933 74.8232 43.019C80.7868 42.4838 80.4045 37.2594 80.4045 37.2594C76.7346 37.8455 75.3839 39.8589 74.8742 41.337C74.9252 39.9608 75.0271 38.6101 75.2055 37.2594C81.2965 37.5907 81.6023 32.2897 81.6023 32.2897C77.4482 32.3917 75.9191 34.6599 75.3584 36.087C75.5878 34.5579 75.9191 33.0543 76.3269 31.5762C82.4179 32.8249 83.4373 27.524 83.4373 27.524C78.5186 26.9888 76.8876 29.9706 76.4288 31.1174C76.913 29.3844 77.4992 27.7024 78.1873 26.0459H78.2128C78.2383 25.9949 78.2383 25.9439 78.2383 25.8675C78.9773 24.1345 79.8184 22.4269 80.7613 20.7959C80.8378 20.8468 80.8887 20.8723 80.8887 20.8723C80.9907 20.6175 81.0671 20.3881 81.1181 20.1587C82.0101 18.7061 82.953 17.3044 83.9979 15.9537C84.1254 16.0556 84.2273 16.1321 84.2273 16.1321C84.4567 15.7243 84.6351 15.342 84.788 14.9598C85.7564 13.762 86.7758 12.6406 87.8717 11.5447C88.0501 11.7486 88.1775 11.876 88.1775 11.876C88.5853 11.3408 88.8911 10.8057 89.146 10.296C90.1399 9.35301 91.2103 8.48651 92.2807 7.62001C92.4845 7.95132 92.6629 8.1552 92.6629 8.1552C93.3001 7.49258 93.7588 6.85545 94.1156 6.21832C94.5234 5.93798 94.9566 5.65764 95.3644 5.40279C95.3389 5.53022 95.3134 5.63215 95.3134 5.63215C103.316 6.65156 104.845 0.458643 104.845 0.458643C97.811 -1.12144 95.7976 4.02659 95.3899 5.32634C94.9821 5.58119 94.5743 5.83604 94.192 6.0909C96.027 2.65039 93.8862 0.0253906 93.8862 0.0253906C90.2418 3.13459 91.4651 6.2438 92.2297 7.51806C91.2358 8.28262 90.2418 9.07267 89.2989 9.91368C90.9044 6.0909 88.305 3.6443 88.305 3.6443C85.0174 7.28869 86.8268 10.2705 87.7443 11.3918C86.8013 12.3093 85.9093 13.2522 85.0428 14.2207C86.2661 10.1176 83.2589 7.95132 83.2589 7.95132C80.43 12.0799 82.7237 14.8068 83.7686 15.7498C82.9276 16.7947 82.1375 17.8651 81.3984 18.9864C82.1375 14.6794 78.8244 12.9209 78.8244 12.9209C76.5562 17.4063 79.2322 19.802 80.379 20.592C79.6909 21.7388 79.0283 22.9112 78.4422 24.1345C78.6205 19.751 75.0781 18.4258 75.0781 18.4258C73.4216 23.166 76.3779 25.1793 77.6266 25.8165C77.0914 27.0398 76.6072 28.2886 76.174 29.5628C75.7407 25.2048 72.0963 24.3893 72.0963 24.3893C71.1024 29.2825 74.2626 30.9135 75.5878 31.3723C75.231 32.6465 74.9252 33.9208 74.6703 35.2205C73.6509 30.99 69.9556 30.6587 69.9556 30.6587C69.6243 35.6028 72.9373 36.8261 74.339 37.1065C74.1351 38.3807 74.0077 39.6805 73.9313 41.0057C72.3512 37.0045 68.6558 37.1829 68.6558 37.1829C68.9616 42.127 72.4276 42.8916 73.8548 42.9936C73.8548 43.2739 73.8293 43.5542 73.8293 43.8601C73.8293 44.8795 73.8803 45.8989 73.9568 46.8928C71.867 43.1719 68.248 43.8091 68.248 43.8091C69.2165 48.6768 72.7335 48.9571 74.1606 48.8806C74.3135 50.1804 74.5174 51.4547 74.7723 52.7034C72.1983 49.3139 68.7323 50.4352 68.7323 50.4352C70.3124 55.0736 73.8038 54.9461 75.2055 54.6913C75.5114 55.9146 75.8681 57.1379 76.2759 58.3357C73.2941 55.4049 70.032 56.9595 70.032 56.9595C72.2237 61.3429 75.6388 60.7823 77.015 60.3235C77.4737 61.4959 78.0089 62.6427 78.5696 63.7895C75.231 61.292 72.2237 63.2543 72.2237 63.2543C74.9252 67.2555 78.1873 66.3126 79.538 65.6754C80.1242 66.7458 80.7613 67.7907 81.4494 68.8101C77.8815 66.9242 75.2055 69.1924 75.2055 69.1924C78.4167 72.7858 81.5004 71.4351 82.7746 70.6451C83.4882 71.6135 84.2528 72.5565 85.0428 73.4484C81.2965 72.0977 78.9773 74.6717 78.9773 74.6717C82.5453 77.73 85.3996 76.1499 86.5974 75.1559C87.3875 75.9715 88.1775 76.7615 89.044 77.5261C85.3232 76.838 83.4373 79.5904 83.4373 79.5904C87.2855 82.0879 89.8596 80.304 90.9554 79.1571C91.7709 79.8198 92.6374 80.4569 93.5039 81.0685C89.9105 81.043 88.5088 83.8719 88.5088 83.8719C92.51 85.7578 94.8037 83.8719 95.7976 82.5976C96.6131 83.1074 97.4542 83.6171 98.3207 84.1013C95.0585 84.7129 94.0901 87.4908 94.0901 87.4908C98.0658 88.7651 100.079 86.8792 100.997 85.4775C101.787 85.8598 102.628 86.1911 103.443 86.5224C100.614 87.6437 100.105 90.2942 100.105 90.2942C103.978 90.9823 105.762 89.1219 106.552 87.6437C107.139 87.8476 107.725 88.0515 108.311 88.2299V86.242H108.285Z" fill="#B3B4B6"/>
<path d="M78.2129 26.097C84.1255 28.1613 85.833 23.0388 85.833 23.0388C79.8949 21.5606 78.2129 26.097 78.2129 26.097Z" fill="#B3B4B6"/>
<path d="M88.8655 18.9102C83.1823 16.6674 80.9141 20.949 80.9141 20.949C86.4953 23.7524 88.8655 18.9102 88.8655 18.9102Z" fill="#B3B4B6"/>
<path d="M92.4072 15.2401C87.0553 12.2583 84.252 16.2085 84.252 16.2085C89.4 19.7255 92.4072 15.2401 92.4072 15.2401Z" fill="#B3B4B6"/>
<path d="M96.4094 12.0543C91.5162 8.40993 88.2031 11.9269 88.2031 11.9269C92.8414 16.132 96.4094 12.0543 96.4094 12.0543Z" fill="#B3B4B6"/>
<path d="M100.792 9.45484C96.4084 5.17332 92.6621 8.23155 92.6621 8.23155C96.7143 12.9973 100.792 9.45484 100.792 9.45484Z" fill="#B3B4B6"/>
<path d="M172.534 50.4098C172.534 50.4098 169.042 49.2885 166.494 52.678C166.749 51.4293 166.952 50.155 167.105 48.8553C168.533 48.9317 172.049 48.6259 173.018 43.7837C173.018 43.7837 169.399 43.1465 167.309 46.8674C167.386 45.848 167.437 44.8541 167.437 43.8347C167.437 43.5543 167.411 43.274 167.411 42.9682C168.838 42.8662 172.279 42.1017 172.61 37.1575C172.61 37.1575 168.915 37.0046 167.335 40.9803C167.258 39.6805 167.105 38.3808 166.927 37.0811C168.329 36.8007 171.642 35.5774 171.31 30.6333C171.31 30.6333 167.59 30.9646 166.596 35.1951C166.341 33.8954 166.035 32.5956 165.678 31.3469C167.003 30.8881 170.164 29.2571 169.17 24.3639C169.17 24.3639 165.5 25.2049 165.092 29.5374C164.659 28.2632 164.175 27.0144 163.639 25.7911C164.888 25.154 167.844 23.1406 166.188 18.4004C166.188 18.4004 162.671 19.7256 162.824 24.1091C162.238 22.9112 161.575 21.7134 160.887 20.5666C162.034 19.7766 164.71 17.3809 162.442 12.8955C162.442 12.8955 159.128 14.654 159.868 18.961C159.128 17.8397 158.338 16.7693 157.497 15.7244C158.542 14.7815 160.836 12.0545 158.007 7.92591C158.007 7.92591 155 10.0667 156.223 14.1953C155.357 13.2014 154.465 12.2584 153.522 11.3664C154.439 10.2706 156.249 7.28879 152.961 3.61891C152.961 3.61891 150.362 6.06549 151.967 9.88828C151.024 9.04727 150.056 8.25723 149.036 7.49267C149.801 6.19292 151.05 3.08372 147.38 0C147.38 0 145.239 2.65046 147.074 6.06549C146.692 5.81064 146.284 5.55578 145.876 5.30093C145.494 3.9757 143.48 -1.14683 136.421 0.433253C136.421 0.433253 137.95 6.62617 145.953 5.60676C145.953 5.60676 145.927 5.50481 145.902 5.37738C146.309 5.65772 146.743 5.91258 147.15 6.19292C147.507 6.80456 147.966 7.46719 148.603 8.1298C148.603 8.1298 148.781 7.92591 148.985 7.5946C150.081 8.43562 151.126 9.3276 152.12 10.2706C152.375 10.7803 152.681 11.29 153.088 11.8506C153.088 11.8506 153.216 11.7232 153.394 11.5193C154.49 12.6152 155.51 13.7366 156.478 14.9344C156.631 15.3166 156.809 15.6989 157.039 16.1067C157.039 16.1067 157.141 16.0557 157.268 15.9283C158.313 17.279 159.256 18.6807 160.148 20.1334C160.224 20.3627 160.301 20.5921 160.377 20.8469C160.377 20.8469 160.428 20.8215 160.505 20.7705C161.448 22.4015 162.289 24.0836 163.028 25.8421C163.053 25.893 163.053 25.944 163.053 26.0204H163.079C163.767 27.6515 164.353 29.359 164.837 31.092C164.378 29.9197 162.747 26.9634 157.829 27.4986C157.829 27.4986 158.848 32.7995 164.939 31.5508C165.321 33.0289 165.653 34.5325 165.908 36.0616C165.347 34.6345 163.818 32.3663 159.664 32.2643C159.664 32.2643 159.969 37.5653 166.06 37.234C166.239 38.5847 166.341 39.9354 166.392 41.3116C165.882 39.8335 164.531 37.8201 160.861 37.234C160.861 37.234 160.479 42.4585 166.443 42.9936C166.443 44.2679 166.366 45.5422 166.264 46.7909C165.882 45.2873 164.735 43.2995 161.397 42.3055C161.397 42.3055 160.352 47.3516 166.035 48.7278C165.882 49.8747 165.678 51.0215 165.423 52.1428C165.143 50.6392 164.175 48.7278 161.244 47.4026C161.244 47.4026 159.536 52.2193 164.914 54.3346C164.633 55.405 164.302 56.4499 163.92 57.4948C163.792 55.9911 163.028 54.0542 160.403 52.4232C160.403 52.4232 158.109 56.9086 163.002 59.7375C162.594 60.6804 162.187 61.5979 161.702 62.5153C161.702 61.0372 161.142 59.1513 158.899 57.3164C158.899 57.3164 156.07 61.4195 160.454 64.86C159.944 65.7265 159.434 66.5675 158.899 67.383C159.077 65.9304 158.721 64.0445 156.784 61.9547C156.784 61.9547 153.445 65.6245 157.294 69.6003C156.707 70.3648 156.096 71.0784 155.459 71.8175C155.79 70.4158 155.637 68.5299 154.057 66.2872C154.057 66.2872 150.26 69.4728 153.522 73.9073C152.834 74.5954 152.145 75.2835 151.406 75.9206C151.942 74.5699 152.069 72.6585 150.769 70.1864C150.769 70.1864 146.564 72.8624 149.266 77.7555C148.45 78.3927 147.609 79.0043 146.768 79.5905C147.533 78.3162 148.017 76.4048 146.997 73.6269C146.997 73.6269 142.41 75.7422 144.551 80.9922C143.582 81.6038 142.563 82.1645 141.544 82.6997C142.589 81.5783 143.506 79.6669 142.818 76.5322C142.818 76.5322 137.874 78.0614 139.479 83.7191C138.154 84.3307 136.803 84.8659 135.427 85.3501C136.778 84.5601 138.613 82.7761 138.307 78.8769C138.307 78.8769 133.032 79.7689 134.076 85.8344C133.694 85.9618 133.337 86.1147 132.955 86.2166V88.1535C133.541 87.9751 134.127 87.7712 134.714 87.5674C135.504 89.0455 137.288 90.9059 141.161 90.2178C141.161 90.2178 140.626 87.5674 137.823 86.446C138.638 86.1147 139.479 85.7834 140.269 85.4011C141.187 86.8028 143.2 88.6887 147.176 87.4145C147.176 87.4145 146.207 84.6366 142.945 84.0249C143.812 83.5662 144.653 83.0565 145.468 82.5213C146.462 83.7955 148.756 85.7069 152.757 83.7955C152.757 83.7955 151.33 80.9667 147.762 80.9922C148.629 80.3805 149.495 79.7434 150.311 79.0808C151.406 80.2276 153.98 82.0116 157.829 79.514C157.829 79.514 155.968 76.7616 152.222 77.4497C153.063 76.6852 153.878 75.8951 154.669 75.0796C155.866 76.048 158.695 77.6536 162.289 74.5954C162.289 74.5954 159.969 72.0213 156.223 73.3721C157.013 72.4546 157.778 71.5371 158.491 70.5687C159.74 71.3842 162.849 72.7095 166.06 69.116C166.06 69.116 163.384 66.8478 159.817 68.7338C160.505 67.7143 161.142 66.6694 161.728 65.5991C163.079 66.2362 166.341 67.1792 169.042 63.178C169.042 63.178 166.009 61.2156 162.696 63.7132C163.257 62.5918 163.767 61.445 164.251 60.2472C165.627 60.7059 169.042 61.2666 171.234 56.8831C171.234 56.8831 167.972 55.354 164.99 58.2593C165.398 57.0615 165.755 55.8637 166.06 54.6149C167.462 54.9207 170.928 55.0482 172.534 50.4098Z" fill="#B3B4B6"/>
<path d="M163.003 26.097C163.003 26.097 161.321 21.5606 155.383 23.0388C155.383 23.0133 157.116 28.1358 163.003 26.097Z" fill="#B3B4B6"/>
<path d="M152.375 18.9102C152.375 18.9102 154.745 23.7778 160.326 20.949C160.326 20.949 158.058 16.6674 152.375 18.9102Z" fill="#B3B4B6"/>
<path d="M148.832 15.2403C148.832 15.2403 151.839 19.7512 156.987 16.2088C156.987 16.1833 154.158 12.2586 148.832 15.2403Z" fill="#B3B4B6"/>
<path d="M144.832 12.0543C144.832 12.0543 148.4 16.1065 153.038 11.9269C153.038 11.9269 149.725 8.40993 144.832 12.0543Z" fill="#B3B4B6"/>
<path d="M140.447 9.45484C140.447 9.45484 144.525 12.9973 148.577 8.23155C148.552 8.23155 144.805 5.17332 140.447 9.45484Z" fill="#B3B4B6"/>
<path d="M104.055 49.9768V35.8834H106.96V27.7791H110.044V15.6227L117.766 10.2198V6.52441C98.9068 7.97707 84.0234 23.7525 84.0234 42.9938C84.0234 58.3614 93.504 71.5118 106.935 76.9402V52.6782L104.055 49.9768Z" fill="#33A6DE"/>
<path d="M120.467 6.42236C119.55 6.42236 118.658 6.44784 117.766 6.52429V6.54979C118.658 6.47333 119.55 6.42236 120.467 6.42236Z" fill="white"/>
<path d="M157.217 42.9938C157.217 23.7525 142.359 8.00256 123.475 6.52441V10.2198L131.197 15.6227V27.7791H134.28V35.8834H137.186V49.9768L134.28 52.6782V76.9402C147.711 71.5118 157.217 58.3869 157.217 42.9938Z" fill="#153D68"/>
<path d="M134.28 35.8834V27.7791H131.196V15.6226L123.474 10.2198V6.5244C122.837 6.47343 122.175 6.44795 121.538 6.42247V6.39697H119.932V6.42247C119.193 6.44795 118.479 6.47343 117.766 6.5244V10.2198L110.044 15.6226V27.7791H106.96V35.8834H104.055V49.9768L106.96 52.6782V76.9402C111.038 78.5967 115.498 79.5142 120.161 79.5907H121.206C125.819 79.5142 130.228 78.5967 134.28 76.9657V52.7037L137.186 50.0023V35.9089H134.28V35.8834Z" fill="white"/>
<path d="M120.62 58.1572C119.32 58.1572 118.25 59.2021 118.25 60.5274V65.9302H122.965V60.5274C122.99 59.2021 121.92 58.1572 120.62 58.1572Z" fill="#B3B4B6"/>
<path d="M129.744 16.6929H111.496V34.2267H129.744V16.6929Z" fill="#B3B4B6"/>
<path d="M120.62 29.9454C123.097 29.9454 125.106 27.9372 125.106 25.46C125.106 22.9828 123.097 20.9746 120.62 20.9746C118.143 20.9746 116.135 22.9828 116.135 25.46C116.135 27.9372 118.143 29.9454 120.62 29.9454Z" fill="white"/>
</svg>
