<svg width="36" height="36" viewBox="0 0 36 36" fill="none" xmlns="http://www.w3.org/2000/svg">
<circle cx="18" cy="18" r="18" fill="#3C5A99"/>
<path d="M15.7402 26H18.6777V18.8438H20.959L21.334 16H18.6777V14.0312C18.6777 13.5938 18.7402 13.25 18.9277 13.0312C19.1152 12.7812 19.5215 12.6562 20.084 12.6562H21.584V10.125C21.0215 10.0625 20.2715 10 19.3965 10C18.2715 10 17.3965 10.3438 16.7402 11C16.0527 11.6562 15.7402 12.5625 15.7402 13.75V16H13.334V18.8438H15.7402V26Z" fill="white"/>
</svg>
